﻿"id","screen_name","created_at","full_text"
"1152308215536709633","Activision","Fri Jul 19 20:04:22 +0000 2019","Squawk Talk: Welcome to the mid-season Crash Team Racing Nitro-Fueled Grand Prix Round-up with Chick and Stew! Fowl play-by-plays, Track Tips, and a whole lot of clucking! All going on here: https:t.coV30V4irFKL  @CrashBandicoot https:t.coRpN8V4vNxI"
"1151543620828192768","Activision","Wed Jul 17 17:26:08 +0000 2019","Congratulations to @BeenoxTeam on the amazing launch of @CrashBandicoot Crash Team Racing Nitro-Fueled! To celebrate, the devs and fans went fur-throttle on a real kart racing track! Story is here: https:t.coUGe2dcIVbM https:t.cohCD46MEV4x"
"1151540658202710021","BeenoxTeam","Wed Jul 17 17:14:22 +0000 2019","Our karting event for Crash Team Racing Nitro-Fueled has been much talked about in the last week! To learn all about this game launch, read @Activision 's blog post!  https:t.cosNl8Cocc3m #CTRNitroFueled"
"1152708529964408832","videogamedeals","Sat Jul 20 22:35:04 +0000 2019","Spyro + Crash Remastered Game Bundle (PS4) $41.24 via PSN. https:t.coYKzfR5JHKo https:t.cokk2EfGs5iX"
"1150842635164086272","ThomasSanders","Mon Jul 15 19:00:40 +0000 2019","Hi, yes, excuse me, who gave me a WHOLE SPYRO GIFT PACK WITH COMPLETE WITH BEAUTIFUL COLLECTIBLE PINS at my Meet and Greet??? I love you!!!!  https:t.cozM77SNNifA"
"1150450186440892417","IGN","Sun Jul 14 17:01:13 +0000 2019","Speedrunner Jumpyluff finished Spyro 2: Ripto's Rage in under 44 minutes! Watch the whole thing here: https:t.cocBwjMymnoI https:t.cooGxjkxPN8x"
"1151367040160215040","videogamedeals","Wed Jul 17 05:44:28 +0000 2019","Spyro the Dragon Burnt Sheep Scented Candle  $6.28 via GameStop. https:t.cot4xlKerVbZ https:t.cosKBExw9T0x"
"1152934076568891392","ABC","Sun Jul 21 13:31:18 +0000 2019","Mercedes Schlapp, a Trump campaign aide, defends the president: I have worked with President Trump for two years and he is not a racist. He is a compassionate man whose policies have focused on the minority community. https:t.coWzOhSM6dkC https:t.coeaVpBYLhUK"
"1152930362928115715","PhilipRucker","Sun Jul 21 13:16:33 +0000 2019","WH adviser Mercedes Schlapp claims in a single sentence to @GStephanopoulos both that Trump made it very clear he disavowed chant yet stands with those people in North Carolina."
"1153078248399675392","BreitbartNews","Sun Jul 21 23:04:12 +0000 2019","...the unemployment numbers for African Americans is at its lowest, for Hispanics at its lowest. https:t.cofVCvW4ehWh"
"1152936520539443201","ABCPolitics","Sun Jul 21 13:41:01 +0000 2019",".@GStephanopoulos to Mercedes Schlapp: You and the president seem to be saying that if you criticize ... the conditions of the U.S. while he's president, that's unpatriotic, but Trump was criticizing the conditions of the U.S. when he was not president https:t.coI9aGhb4dE6 https:t.con5bsfToBJL"
"1153270302710910976","F1","Mon Jul 22 11:47:21 +0000 2019","Mercedes mark a special anniversary  Mick Schumacher driving a classic Ferrari   Hockenheim - here we come!   #GermanGP  #F1  https:t.co5jX3E5pQB0"
"1153239464984109056","F1","Mon Jul 22 09:44:49 +0000 2019","Testing troubles are a distant memory for Mercedes  #GermanGP  #F1   https:t.coaKh3f8PQmq"
"1152805420689448960","WSJ","Sun Jul 21 05:00:05 +0000 2019","How Kim Jong Un's government evaded sanctions to smuggle home two bulletproof, head-of-state Mercedes-Benz cars costing more than $500,000 apiece https:t.coeJQMTcnlVb"
"1153082205029183500","RealKyleMorris","Sun Jul 21 23:19:55 +0000 2019",".@mercedesschlapp: The unemployment numbers for African Americans is at its lowest, for Hispanics at its lowest. I mean, [Trump] is a results-oriented president who is focused on helping uplift all Americans... https:t.coztxfCimcEW"
"1152934624995106816","ThisWeekABC","Sun Jul 21 13:33:29 +0000 2019","Trump campaign aide Mercedes Schlapp: ... Democratic Party is in disarray,  where these Democratic presidential candidates are going to have to kiss the ring of the squad because they are the new voices of the Democrat Party and that should be concerning https:t.co3Hpmyqr8Sw https:t.coozLFv0GVzp"
"1152876641233846272","JoshBrogadirTV","Sun Jul 21 09:43:05 +0000 2019","State police urging publics help:  woman approx age 50 killed   in crosswalk on Mystic Ave in East Somerville near Stop & Shop  witness says driver stopped briefly, put head in hands, kept going toward 93  car likely dark Mercedes, front end passenger side damage  #WCVB https:t.coJUyWSKXb2k"
"1152773386495508480","MassStatePolice","Sun Jul 21 02:52:47 +0000 2019","Pedestrian victim in this crash has died. We are looking for hit and run suspect vehicle, possibly a Mercedes with front end damage. Anyone who has any info urged to call 911 or MSP at 508-820-2121. https:t.coIQ07wAFhB1"
"1153217873176858624","CNN","Mon Jul 22 08:19:01 +0000 2019","Why was the Taiwan flag removed from Tom Cruise's 'Top Gun' jacket? https:t.coquEO1aooqu"
"1152873349330198528","ComicBook","Sun Jul 21 09:30:00 +0000 2019","Jeffrey Dean Morgan geeked out when he met Tom Cruise proving celebrities are just like us when it comes to meeting their heroes! https:t.cowVDOdJ11VN"
"1153020765551386625","EW","Sun Jul 21 19:15:47 +0000 2019","Seth Rogen says AMC 'pushed back hard' on showing Tom Cruise explode in 'Preacher' pilot https:t.coBOxpLg3lcF"
"1152745049282830337","TMZ","Sun Jul 21 01:00:11 +0000 2019","Top Gun trailer: Tom Cruise still feels the need for speed over 30 years after original (via @toofab) https:t.coBAu5Z6gQaL"
"1153185425135194112","CNNBusiness","Mon Jul 22 06:10:05 +0000 2019","A new trailer for the sequel of Top Gun is stirring up controversy after it shows Tom Cruise putting on that iconic bomber jacket  with two key changes https:t.coyeASAQ4hmB"
"1152932743124312070","verge","Sun Jul 21 13:26:01 +0000 2019","The first trailer for Top Gun: Maverick is a flashback to 1986 https:t.coAr4Gvjd74f https:t.coPWfZLeayAR"
"1153048704888332288","zara915","Sun Jul 21 21:06:48 +0000 2019","Small reminder that this paparazzi photo of Nicole Kidman full of joy as she left an attorneys office after her divorce settlement with Tom Cruise was finalised exists!!! https:t.coHvRj6aRB5P"
"1151934299270197248","LightsCameraPod","Thu Jul 18 19:18:33 +0000 2019","First trailer for the Top Gun sequel, 'Top Gun: Maverick' starring Tom Cruise, Miles Teller, Val Kilmer, Jon Hamm and more. Thoughts? https:t.coBww0AfQrjT"
"1153288955229589504","THR","Mon Jul 22 13:01:28 +0000 2019","'Top Gun: Maverick' Trailer Sparks Controversy as Fans Notice Taiwanese Flag Missing From Tom Cruise's Jacket https:t.cop4VoHDfuBw https:t.coLzxaO3Ng9o"
"1153024343741554696","CNNnews18","Sun Jul 21 19:30:00 +0000 2019","Boeing announced a partnership with PSU Hindustan Aeronautics Limited (HAL) and Mahindra Defence Systems (MDS) for manufacturing the FA-18 Super Hornet in India.  https:t.coaEoXKfZ1rZ"
"1153305603298619392","TMZ","Mon Jul 22 14:07:37 +0000 2019","Fake Tom Cruise Dupes Tons of People at Comic-Con https:t.co9sGOcamv1j"
"1152172983223488512","UberFacts","Fri Jul 19 11:07:00 +0000 2019","Tom Cruise split with all three of his wives when they were 33 years old."
"1152922083824979969","MsJulieLenarz","Sun Jul 21 12:43:39 +0000 2019","Can we kill Corbyn is always on the side of peace narrative?   In N Ireland he played no part other than to defend IRA.   He opposed NATO action against Milosevic when his militia were cleansing the Balkan.   In Syria, his Stop the War coalition whitewashed Assads mass murder."
"1153027325526794248","MarkHertling","Sun Jul 21 19:41:51 +0000 2019","Appears there is also delight in not only what is happening in the US, but what allied leaders are saying about the current administration. Using divisiveness in the US and in EU NATO https:t.coVRZqIKnpHM"
"1153122414156558336","TarekFatah","Mon Jul 22 01:59:42 +0000 2019","In Turkey, public school textbook justifies 911, slams NATO, and brands EU as a Christian club  @NordicMonitor  https:t.copB2YKHHKkf"
"1152845299699867648","NATO","Sun Jul 21 07:38:32 +0000 2019","Retweet to join us in wishing our host and Ally  #Belgium a happy #NationalDay #be2107    1955 clip introducing #Belgique #Belgi #Belgien to its Allies  click on video for full film  https:t.cokax9dSsOLj"
"1152699706532859904","DeptofDefense","Sat Jul 20 22:00:00 +0000 2019","Rolling steel!  U.S. & Polish  troops from @NATOs enhanced Forward Presence Battle Group Poland participate in a simulated tank battle at the Bemowo Piskie Training Area.#KnowYourMil #WeAreNATO https:t.coVgfGn57zvS"
"1152811053845114880","jumblejim","Sun Jul 21 05:22:28 +0000 2019","The veteran awardees at the Vietnam Veterans of America convention this week were myself, combat surgeon Dr. Elbert Nelson, and General Wesley Clark, former head of NATO and presidential candidate.  Heady company. https:t.co4Oew7z15iS"
"1152695513181016064","RepGusBilirakis","Sat Jul 20 21:43:21 +0000 2019","It is still impossible to fathom that 45 years later a NATO ally,  Turkey, can brutally invade and STILL occupy an EU member, Cyprus.  Nicosia is the world's only divided capital."
"1152680389632233472","rabrowne75","Sat Jul 20 20:43:15 +0000 2019",".@NATO: We condemn the seizure of two commercial ships in the Strait of Hormuz. This represents a clear challenge to international freedom of navigation. We urge Iran to immediately release the ships & their crew. The UK has made clear that their priority is to address..."
"1153207443322785792","USAmbNATO","Mon Jul 22 07:37:34 +0000 2019","All 29 @NATO Allies agree that #Russia has violated the #INFTreaty, posing a significant risk to our security. Allies regret that  has shown no willingness to return to compliance, despite multiple engagement attempts. Learn more about NATO Allies efforts to save the treaty. https:t.coBMdbjFCup4"
"1152683151183044610","NATOpress","Sat Jul 20 20:54:13 +0000 2019","We condemn the seizure of two ships in the #HormuzStrait, which represents a clear challenge to international freedom of navigation.   Read my statement  #NATO https:t.coaDRBJdWRKC"
"1153057058679185409","CSIS","Sun Jul 21 21:40:00 +0000 2019","NATO spent well over 14 times as much on defense in 2018 as Russia did on military forces.   European members of NATO alone spent well over 4 times as much on defense in 2018 as Russia did on military forces. https:t.cof0KZuoHMzP"
"1152952994109034497","SenRickScott","Sun Jul 21 14:46:29 +0000 2019","Turkeys decision to purchase the S-400 air defense system from Russia poses a risk to our national security and the national security of our @NATO allies.  Read more about the resolution I introduced with @SenToddYoung in todays @WSJ  https:t.co7pmKUYVNqx"
"1152941753412046849","Uncle_Jimbo","Sun Jul 21 14:01:49 +0000 2019","This is unquestionably an act of war on a NATO ally  #Iran has continued to raise the stakes w #IRGC attacks & use of their proxies  Thus far our only response was a self defense shootdown of a drone  We & the Brits need to say forcefully Hell No! https:t.coGsGqdgSKZU"
"1153022765873684486","27khv","Sun Jul 21 19:23:44 +0000 2019","Exit polls released for today's Ukrainian parliament election: Servant of the People (Populist, apparently pro-West) 43% Opposition Platform (Eurosceptic, Russophile) 11% European Solidarity (Ethno-nationalist, pro-EUNATO) 8% Batkivshchyna (populist) 7% Golos (liberal) 6% https:t.cooe8mmpOe23"
"1152933511214641154","NATO_MARCOM","Sun Jul 21 13:29:04 +0000 2019"," Turkish Navy and Italian Navy conducted a Passing Exercise in the Mediterranean Sea. https:t.coMg9dP8xwod"
"1153173579137073152","Greenpeace","Mon Jul 22 05:23:00 +0000 2019","Indigenous Peoples and traditional communities are the best guardians of the forests.  We stand in solidarity with the millions in India who could be evicted from their forest communities in a Supreme Court decision this week.  RT your support https:t.coSac71OT5QX"
"1153157812769447936","MikeHudema","Mon Jul 22 04:20:21 +0000 2019","Germany just launched the world's first hydrogen-powered train. It emits nothing but water and steam!   We have solutions to the #climate crisis. Time to implement them. Sign on today: https:t.coc6CBnDPi6z @JustinTrudeau  #ActOnClimate #climatechange #tech #greenenergy https:t.co9akhxhNdRZ"
"1152707276995739648","Greenpeace","Sat Jul 20 22:30:05 +0000 2019","We arent drowning in plastic, were breathing it in  https:t.conmKTJ1Boif"
"1152719444084482048","MikeHudema","Sat Jul 20 23:18:26 +0000 2019","BAM! #Amsterdam to ban all petrol and diesel cars and motorbikes by 2030   We have solutions to the #climate crisis. Time for a wholistic plan to implement them. Sign on today: https:t.coc6CBnDPi6z #GreenNewDeal  #ActOnClimate #climate #energy #cdnpoli #bcpoli @GretaThunberg https:t.coJGVzbYQbI0"
"1153234064352141312","Greenpeace","Mon Jul 22 09:23:21 +0000 2019","Kenya has just launched Africa's largest ever wind farm. Awesome news!   https:t.co3HXHrFKkRW https:t.co3yg9DnR5tn"
"1153024378763907078","Greenpeace","Sun Jul 21 19:30:08 +0000 2019","There is no way for me not to have a broken heart most days - how climate scientists grieve as our world warms  https:t.cox3931M4XCp"
"1152986786005733377","Greenpeace","Sun Jul 21 17:00:45 +0000 2019","The deep sea mining industry is trying to position itself as necessary and even beneficial. Weve debunked their top 3 PR myths for you >> https:t.coQMWi491HnC"
"1153302449421258752","Greenpeace","Mon Jul 22 13:55:05 +0000 2019","Thought you were shocked by your older face in #FaceApp ?  #EarthApp shows you why we need to tackle climate change, now.  https:t.coNB8QSRRb86 https:t.co6dctXIoUaa"
"1152665749259001856","Greenpeace","Sat Jul 20 19:45:04 +0000 2019","These toxic algae blooms arent just dangerous for people and marine life  theyre bad news for the climate too https:t.coO3kDYCevcg"
"1153069665024991232","Greenpeace","Sun Jul 21 22:30:05 +0000 2019","Yes, climate change is also a health crisis https:t.co7cn4BHT4ub"
"1152865893908668416","Greenpeace","Sun Jul 21 09:00:22 +0000 2019","Sing it with us : Omm nom nom        https:t.coZcFLRTp81E"
"1153198070676561920","Greenpeace","Mon Jul 22 07:00:20 +0000 2019","Around the world students are rising to take #climateaction. September 20 and 27 are the next school strikes. Will you be there? #Fridaysforfuture  https:t.co9ko9p0hrfj"
"1152760157455159296","Greenpeace","Sun Jul 21 02:00:13 +0000 2019","No energy saving lightbulbs or reusable shopping bags required https:t.coIGJuReBTJP"
"1153249227419594752","GreenpeaceUK","Mon Jul 22 10:23:36 +0000 2019","Meet Gretchen, the scientist who discovered the Lost City.   Now 20 years on, its under threat from the deep sea mining industry. #ProtectTheOceans   Join Gretchen in protecting our oceans >> https:t.co42IVh7Mctd https:t.coK6JHoV1SGj"
"1153294747055906816","UE","Mon Jul 22 13:24:29 +0000 2019","Good quality journalism on climate change has never been more vital.  Join our team to investigate the biggest story of our time. #JobAlert  https:t.co8yqMB03mcX https:t.coi5Xa64KqEq"
"1150337917556088832","TeenVogue","Sun Jul 14 09:35:06 +0000 2019","As many children are known to do! https:t.coWi8rI48DGM"
"1151185980214403072","wmag","Tue Jul 16 17:45:00 +0000 2019","BFFs Emma Stone and Jennifer Lawrence found out they have a lot more in common than a couple of Oscars. https:t.cof1qsanfOVh"
"1151504223072206851","ScottMendelson","Wed Jul 17 14:49:35 +0000 2019","#DarkPhoenix Will Become #XMenDarkPhoenix When It Arrives On DVD, VOD And Blu-Ray via @Forbes by @ScottMendelson https:t.colDtrINUN7W https:t.co94yWhvEN2U"
"1152856990537830402","SpursOfficial","Sun Jul 21 08:25:00 +0000 2019","A mouth-watering clash to kick off our pre-season!     Spurs v Juventus    #SpursTour2019  #ICC2019 https:t.cot5ECImPJfU"
"1152934616212430848","BBCSport","Sun Jul 21 13:33:27 +0000 2019","FT: Juventus 2-3 Tottenham   Harry Kane.  Super-sub. Tries his luck from the halfway line in the 93rd minute. SCORES THE WINNER!   Oh my word!     https:t.cojdyavLaXV1 #bbcfootball #Spurs #THFC #Juve https:t.co8VjHz5WCOb"
"1152917318525022208","SpursOfficial","Sun Jul 21 12:24:43 +0000 2019","HALF-TIME: A bright first-half display in Singapore and we lead Juventus at the break after @ErikLamela's goal.     #THFC 1-0 #JUVE  https:t.coVKJvHMUXAJ"
"1152995275616804864","goal","Sun Jul 21 17:34:29 +0000 2019"," May 8: Tottenham beat Ajax 3-2 after a last minute winner.   July 21: Tottenham beat Juventus 3-2 after a last minute winner.  Matthijs de Ligt must be sick of Tottenham  https:t.cowz7eqzz4CH"
"1152941686630375425","JPW_NBCSports","Sun Jul 21 14:01:33 +0000 2019"," OH MY WORD. Harry Kane scores the winning goal in stoppage time from the halfway line.   Incredible strike from the #THFC star in Singapore against Juventus. (via @ESPNFC)     https:t.coxLTRl5zKa4"
"1153303432163287046","SpursOfficial","Mon Jul 22 13:59:00 +0000 2019","What a night for Japhet Tanganga and Troy Parrott!    We caught up with the pair after they made their first-team debuts against Juventus yesterday.   #SpursTour2019  #ICC2019 https:t.co0Rtu6yQf3m"
"1152935345769668608","goal","Sun Jul 21 13:36:21 +0000 2019","Oh wow   Harry Kane wins it for Tottenham in stoppage time with an incredible strike from the halfway line    Tottenham 3-2 Juventus  https:t.comi6t3osEI6"
"1152935109483532288","FourFourTwo","Sun Jul 21 13:35:25 +0000 2019","Heres a clearer video of Harry Kane banging it in from the halfway line against Juventus.   We love pre-season https:t.coNQFt1wbRAD"
"1152942380779278336","goal","Sun Jul 21 14:04:18 +0000 2019","Matthijs de Ligt gets his first run out in a Juventus kit  https:t.coyGxMALUVs4"
"1152925413766598656","SpursOfficial","Sun Jul 21 12:56:53 +0000 2019","61 - Goal for Juventus. Ronaldo gets it.    #THFC 1-2 #JUVE "
"1153109200777568256","FOXSportsAsia","Mon Jul 22 01:07:11 +0000 2019","We didnt have to talk about that. We were silenced not to mention it at all.  This former @juventusfcen player has revealed how she was not allowed to voice her opinion on the @Cristiano rape case!   #Juventus #CristianoRonaldo #KathrynMayorga https:t.coFZxHhyWQ0G"
"1152990379458924545","MailSport","Sun Jul 21 17:15:02 +0000 2019","Cristiano Ronaldo makes young fan's day as he invites him to sit with Juventus bench during friendly against Tottenham https:t.couon2zpuFbB https:t.coVnTGzHb495"
"1153290205165686785","tancredipalmeri","Mon Jul 22 13:06:26 +0000 2019","Shocking words from ex Juventus Women player, swedish Petronella @nellaekroth : Juventus forced us to keep silence about Cristiano Ronaldos raping accusations. Personal views were repressed, it seemed like a prison"
"1153220121617416193","ODDSbible","Mon Jul 22 08:27:57 +0000 2019"," 63 - Matthijs de Ligt is substituted on and makes his Juventus debut   65 - Lucas Moura scores   De Ligts not even 20 years old yet but he probably never wants to face Moura ever again in his career  https:t.cob6HCFHSeSB"
"1152987620340719617","ESPNStatsInfo","Sun Jul 21 17:04:04 +0000 2019","Harry Kane's game-winning goal at 90'+3 against Juventus was from 47.9 yards out at the @IntChampionsCup.  That would be the longest goal of his career in an official top-flight competition with club or country. https:t.coAXPstfpj6z"
"1152978410819457026","adriandelmonte","Sun Jul 21 16:27:29 +0000 2019"," Manchester United & Leicester City have agreed on 80m for the transfer of Harry Maguire! [BR]  A record fee for a defender once confirmed. https:t.coXM6BSTPhP0"
"1152972550672134144","sportbible","Sun Jul 21 16:04:11 +0000 2019","BREAKING: Manchester United have finally agreed a 80m deal with Leicester City for Harry Maguire, according to @DeanJonesBR.  https:t.coyOXKuLMmCK"
"1153243288390000641","sportbible","Mon Jul 22 10:00:00 +0000 2019","These lads planted a Manchester United flag on their City mate's roof...  https:t.coUcUR0F3zwg"
"1152975146916839424","FoxesofLCFC","Sun Jul 21 16:14:30 +0000 2019","BREAKING: Manchester United have agreed terms with Leicester City for an 80 million deal for Harry Maguire, as per @DeanJonesBR. If the move goes through, Maguire would become the worlds most expensive defender. #LCFC #MUFC"
"1152952566193577985","OptaJoe","Sun Jul 21 14:44:47 +0000 2019","@Boro 19 - Manchester City's (100) 19-point difference to Manchester United (81) in 2017-18 is the largest title winning points margin in Premier League history. Gap. https:t.cozsrWb1Hm90"
"1152975512802869248","WolvesFC_latest","Sun Jul 21 16:15:58 +0000 2019","Manchester United have agreed an 80m fee with Leicester City for Harry Maguire (BR)  What can you get for 80m?   #WWFC https:t.co8DlqBH6I8t"
"1153215493177774080","OptaJoe","Mon Jul 22 08:09:33 +0000 2019","@Boro 18 - The longest winning run in the Premier League stands at 18 straight victories, a record set by Pep Guardiola's Manchester City between August and December 2017. Juggernaut. https:t.cospStFBkbWP"
"1153123151322210304","MelissaReddy_","Mon Jul 22 02:02:37 +0000 2019","He is now on holiday, not the longest one  he will be back on August 5, after the Manchester City game. That means he had two weeks. There is four or five days to prepare for Norwich, 10 days for Chelsea [in the UEFA Super Cup]. https:t.cokoBecOcYHC"
"1152547176125468672","brfootball","Sat Jul 20 11:53:54 +0000 2019","Manchester City have won summer  https:t.co39i81qbV97"
"1152573639201624066","SquawkaNews","Sat Jul 20 13:39:04 +0000 2019","OFFICIAL: Wolves have won the #PLAsiaTrophy after a penalty shoot-out win against Manchester City.  Rui Patrcio the hero. https:t.coDILehQmJGi"
"1152872478001258499","AnfieldHQ","Sun Jul 21 09:26:32 +0000 2019","Virgil van Dijk has fired an early warning to Manchester City that Liverpool are planning another tilt at wresting the Premier League title from their grasp.  We're going to try to do even better than we did last year.  https:t.coscD2iZSTcb"
"1152946339136905217","streetskitchen","Sun Jul 21 14:20:02 +0000 2019","#Manchesters Council Leader, Richard Leese has claimed there is a lack of demand for social housing, in a jaw-dropping interview. This is despite an urgent social housing waiting list in the city of more than 5,000 people. https:t.coor1M6yedKF"
"1152926216745299968","MailSport","Sun Jul 21 13:00:05 +0000 2019","Man City 'set to clinch 16million deal for Thiago Almada,' the Argentine wonderkid who has been dubbed 'the new Lionel Messi' https:t.coZALGc0xCQi https:t.cok4QPgAreqW"
"1152821434999349248","larryelder","Sun Jul 21 06:03:43 +0000 2019","Athena Fleming, military brat (both parents) and military vet, Ms. Golden State America 2019. Shell be representing California in the Ms. America pageant. Dont hate.   #SaturdayNight https:t.couexgfuGRPp"
"1153113783570595841","sbstryker","Mon Jul 22 01:25:24 +0000 2019","Meryl Streep vs. Nicole Kidman in Big Little Lies is to gay culture what the Golden State Warriors facing off against Tom Brady in the World Series or whatever the hell straight people get excited about"
"1152729905085526018","Earthjustice","Sun Jul 21 00:00:00 +0000 2019","The wolf pack survives. Earlier this year, a state judge upheld protections for California gray wolves, who are returning to the Golden State after nearly a century. https:t.coQ3YqoOBzVx"
"1152873150377410560","OmMathur_bjp","Sun Jul 21 09:29:13 +0000 2019","A glorious day ! as Deepak,Rahul Chahar & Khaleel Ahmed are selected in the Indian T20 squad for the upcoming Windies tour. #Rajasthan #Cricket embarks on a golden era,as these lads score a hat trick in representing their home state in the Indian team at the international arena. https:t.coY1vrQSx54B"
"1152974297083736064","RaghusharmaINC","Sun Jul 21 16:11:08 +0000 2019","Participated in Golden Prescription Awards & Conclave organized by India News Rajasthan as Chief Guest today at jaipur. We are proud of state doctors who have been providing their services in interior parts of rajasthan. @Newsx https:t.co8pqeYkgf7C"
"1153188479196643328","Trevor_Lane","Mon Jul 22 06:22:13 +0000 2019","We kick off our season outlook series by taking a deep dive into the Philadelphia #76ers and Golden State #Warriors. Buckle up because both teams are going to look very different next season.@KeithSmithNBA & @Trevor_Lane break it down https:t.cox2FEiR30rh"
"1151881453581393920","jepence","Thu Jul 18 15:48:34 +0000 2019","Republicans are all over the Golden State.  Today, I join @DonaldJTrumpJr, @kimguilfoyle, and @TommyHicksGOP with CA Chairwoman @millanpatterson, who is working hard with @GOPLeader McCarthy, to GROW and INVEST in a stronger @CAGOP.   The Pro-America Party will WIN in 2020."
"1150797599550726144","YoungNBA","Mon Jul 15 16:01:43 +0000 2019","It's going to be hilarious to see Golden State blow past whatever ESPN's panel projects for them https:t.coKThcxlT56k"
"1150829698483552256","LakersReporter","Mon Jul 15 18:09:16 +0000 2019","Troy Daniels (career 40% from 3) on his free agency: I think there were 2 or 3 teams looking to make an offer. Golden State, OKC and teams that needed shooters. Rob Pelinka and Anthony Davis got on the phone and said Hey, we need a shooter."
"1151153375062441984","BreitbartNews","Tue Jul 16 15:35:26 +0000 2019","JUST IN: A woman who for years pretended to be a Native American is now leading the pack of Democrat Party White House contenders.   #TrueStory https:t.coICvbv34Phu"
"1151876997213278209","adamjohnsonNYC","Thu Jul 18 15:30:51 +0000 2019","Fun fact: in his first years on the Newark City Council c. 2001 Booker took large donations from out-of-state wealthy charter school boosters John Walton (Walmart), J Patrick Rooney (Golden Rule Insurance), Larry Stupski (Schwab) and Richard DeVos (husband of Betsy Devos). Odd! https:t.coRSUVN5bdpE"
"1151167253322371073","mitchellvii","Tue Jul 16 16:30:35 +0000 2019","California Poll: Elizabeth Warren Surges Past Kamala Harris, Joe Biden in Golden State https:t.co4XJHxMvFAd via @BreitbartNews"
"1151151537856663552","porszag","Tue Jul 16 15:28:08 +0000 2019","My son recently switched his NBA allegiance from the Houston Rockets to the Golden State Warriors. My wife @biannagolodryga -- a lifelong Rockets fan -- was aghast, but it turns out this disloyalty is about to become commonplace...https:t.co9wqjaavkZP"
"1153007056682508289","BleacherReport","Sun Jul 21 18:21:18 +0000 2019","If you're only making yourself better then you don't stand a f---king chance to ever play in the NBA.  That's real. (via @ricohinesbball) https:t.coEgUq24VBb0"
"1153140702223765504","SportsCenter","Mon Jul 22 03:12:22 +0000 2019","For the first time since the 2015-16 season, theres not an established odds-on favorite to win the NBA title. (via @kirkgoldsberry)  https:t.coMo7o8Yhq3v https:t.coBeKcnfVtnv"
"1153047883572056064","BR_NBA","Sun Jul 21 21:03:32 +0000 2019","Lakers claim Kostas Antetokounmpo off waivers, will be on two-way deal, per @ShamsCharania https:t.co7xXdLKTlwM"
"1153047235749433346","ShamsCharania","Sun Jul 21 21:00:58 +0000 2019","Kostas Antetokounmpo  the younger brother of NBA MVP Giannis Antetokounmpo  heads to the Lakers on a two-way deal. https:t.cozpdgRZaedj"
"1153142949145825280","larryelder","Mon Jul 22 03:21:18 +0000 2019","You can't call an illegal alien an illegal alien. You can't call an NBA owner an owner. I wouldnt be too optimistic about the Founding Fathers. https:t.coydjYgLSSmm"
"1153008652162412544","brfootball","Sun Jul 21 18:27:39 +0000 2019","NBA legend Dirk Nowitzki played goalie in a charity match in Germany today  https:t.cone5VdZByYF"
"1152779335872536576","realmadriden","Sun Jul 21 03:16:25 +0000 2019"," The Beard is here! @HoustonRockets star @JHarden13 came to say hello after tonights match in Houston! #RMTour | @NBA https:t.coAJyOUSnwLd"
"1152971591753641985","NBA","Sun Jul 21 16:00:23 +0000 2019","New @PelicansNBA threads for @ZO2_ and @B_Ingram13! https:t.coa9BQ9tWvlt"
"1152699875684995072","NBA","Sat Jul 20 22:00:41 +0000 2019","New @Lakers threads for @AntDavis23! https:t.coCqZhkdm84F"
"1152692547837419520","ESPNNBA","Sat Jul 20 21:31:34 +0000 2019","The NBA's duos 25 and younger are LEGIT  https:t.coPombHWK86G"
"1152926772897484800","Ballislife","Sun Jul 21 13:02:17 +0000 2019","Alex Rodriguez helps former No. 1 1995 NBA Draft pick Joe Beast Smith get out of debt ($157,000).   Joe made over $61 million playing with 12 teams during his 16-year career.   (Via @CNBCMakeIt)   https:t.cofZEYTu18E2"
"1153026778752880640","JoshEberley","Sun Jul 21 19:39:40 +0000 2019","Buddy Hield being older than Bradley Beal is still the craziest thing in the NBA."
"1152796785619951618","LethalShooter__","Sun Jul 21 04:25:46 +0000 2019","LethalShooter doesnt ever come before a organization. Ive built this company over the last 5years training the top NBA players The Art of Shooting. Do you think I would give it up to be on a staff?.. YES! So dont believe what you hearread. My goal in life is to win a RING."
"1152714805804797953","NBA","Sat Jul 20 23:00:00 +0000 2019","On this version of #NBABreakdown we celebrate @BenSimmons25 23rd Birthday with a one-handed dime to give him a triple-double in 2018! https:t.coDHHNpsZhVU"
"1152751492555669504","MarvelStudios","Sun Jul 21 01:25:47 +0000 2019","Just announced in Hall H at #SDCC, Marvel Studios THOR: LOVE AND THUNDER with Chris Hemsworth, Tessa Thompson and Natalie Portman. Taika Waititi returns as director. In theaters November 5, 2021. https:t.co7RRkOYWTQM"
"1152769710422921217","IGN","Sun Jul 21 02:38:11 +0000 2019","Marvel Studios Phase Four  https:t.coPa7eTJXt4d"
"1152742092034043904","MarvelStudios","Sun Jul 21 00:48:26 +0000 2019","Just announced in Hall H at #SDCC, Marvel Studios THE FALCON AND THE WINTER SOLDIER, an original series with Anthony Mackie, Sebastian Stan and Daniel Brhl. Streaming exclusively on Disney+, Fall 2020. https:t.coFmFMKWUrhO"
"1152775465087721472","IGN","Sun Jul 21 03:01:03 +0000 2019","The Marvel Studios Phase Four Timeline  https:t.cooQLv7bPmSz"
"1152933433406099456","FoxNewsSunday","Sun Jul 21 13:28:45 +0000 2019","Stephen Miller, Senior White House Policy Adviser on Fox News Sunday for an Exclusive interview with Chris Wallace tells Chris I am profoundly outraged by the comments from Ocasio-Cortez... #FNS #FoxNews https:t.convkkeCRRtt"
"1152945998328504320","DevinNunes","Sun Jul 21 14:18:41 +0000 2019","Daniel Turner: California's latest descent into liberal madness  Berkeley bans natural gas | Fox News https:t.coWT9nFg7Tz4"
"1152974779214946304","StephenKing","Sun Jul 21 16:13:03 +0000 2019","FOX news shows the presidents rallies but wont show Robert Muellers testimony? What happened to Fair and Balanced?"
"1152742077253529601","SteveScalise","Sun Jul 21 00:48:22 +0000 2019","We finally have a President who is putting America first. Yet Democrats just wasted another week harassing @realDonaldTrump instead of working with Republicans to solve real problemslike the crisis at our border. Im joining @JudgeJeanine on Fox News tonight to discuss. Tune in!"
"1152956465457586181","kylegriffin1","Sun Jul 21 15:00:16 +0000 2019","Rep. Jerry Nadler: The [Mueller] report presents very substantial evidence that the president is guilty of high crimes and misdemeanors. Via Fox https:t.cox6qn2QD4Yq"
"1153096562249216002","brianstelter","Mon Jul 22 00:16:58 +0000 2019","We crunched the #'s: @AOC has been mentioned on Fox News almost THREE times as often as she's been mentioned on CNN or on MSNBC this year. https:t.coW73na9nt01"
"1152952426598678528","mkraju","Sun Jul 21 14:44:13 +0000 2019","House Judiciary Chairman Jerry Nadler said on Fox this morning: The report presents very substantial evidence that the president is guilty of high crimes and misdemeanors."
"1152994182094565377","BreitbartNews","Sun Jul 21 17:30:09 +0000 2019","Fox News Channel's Chris Wallace declares that there is no question that President Donald Trump is stoking racial divisions in America. https:t.co2QCI8tuY1j"
"1152975779174735872","atrupar","Sun Jul 21 16:17:01 +0000 2019","FOX NEWS: *plays Stephen Miller a montage of the most racist stuff Trump has said over the years - birtherism, Muslim ban, etc*  Why shouldn't people see that as racist?  MILLER: The term 'racist' has become a label that's deployed to suppress speech the left doesn't want to hear https:t.commbEqvrzDv"
"1152934579831025664","kyledcheney","Sun Jul 21 13:33:18 +0000 2019","NADLER flirts with impeachment again on Fox News Sunday: The report presents very substantial evidence that the president is guilty of high crimes and misdemeanors."
"1152926199326420992","kylegriffin1","Sun Jul 21 13:00:00 +0000 2019","[Trump] is a President who spends an inordinate amount of time watching television, takes political cues from his sycophants at Fox News, and adds to them his own particular brand of white bigotry. He is also stubborn as a mule. https:t.covGWGJgL0Bl"
"1153000366620971009","chuckwoolery","Sun Jul 21 17:54:43 +0000 2019","It's like conflating Illegal immigration with legal immigration? Trump said. Why don't you go back to your country, fix the problems, then come back and tell us how to do it Fake news says, he said, Why don't you go back to where you came from. Wallace Fox News."
"1152947096443424768","Mikel_Jollett","Sun Jul 21 14:23:03 +0000 2019","Fox News is state propaganda. Fox News is state propaganda. Fox News is state propaganda. Fox News is state propaganda. Fox News is state prop https:t.coYdleefHKdA"
"1153268335532040192","marklevinshow","Mon Jul 22 11:39:32 +0000 2019","If you still dont believe we are burdened presently with an UNFREE press & groupthink, see how John Roberts and his wife Kyra are being trashed for simply acknowledging a truth  that is, the presidents accessibility to the media for press questions.  https:t.cor12HrAQFle"
"1152856219956273152","TheEconomist","Sun Jul 21 08:21:56 +0000 2019","Elon Musk wants to connect human minds directly to machines, using a neural lace of electrodes inserted into the brain https:t.cozIOj4uGtdw"
"1152873713714511873","asemota","Sun Jul 21 09:31:27 +0000 2019","Mr. Elon Musk suddenly has an idea or sees one, he calls on his army of talented employees to do some research. He takes the results of the research, then calls on an army of investors with an almost unlimited pool of money. The investors look at it, all chip in then boom! $100m."
"1153195944197984256","TheEconomist","Mon Jul 22 06:51:53 +0000 2019","Connecting brains to machines is already happening. Elon Musk's plans, however, are much more ambitious  https:t.cojo0WMptffy"
"1152990820343136256","TheEconomist","Sun Jul 21 17:16:47 +0000 2019","In a few years, using a brain implant to control your devices could be as normal as wearing wireless earbuds is today https:t.coIiPfIxACqM"
"1153116229504327681","TheEconomist","Mon Jul 22 01:35:07 +0000 2019","Elon Musk wants to link brains directly to machines https:t.colvJCgMRToN"
"1152849343050739714","TMZ","Sun Jul 21 07:54:36 +0000 2019","Pablo Escobar's Brother Wants to Partner Up with Elon Musk https:t.coMLG7OK8RTu"
"1152835215586295808","bhootnath","Sun Jul 21 06:58:28 +0000 2019","A thread on unsolicited advice to tech entrepreneurs and start-up enthusiasts - 1. Solve real world problems,  there are plenty of them. Leave the change the world ideas to people like Elon Musk unless you have a few 100 million USD to seed the idea."
"1152738140911734785","ericgarland","Sun Jul 21 00:32:44 +0000 2019","Maybe Musk should prove he should be able to own a public company and deal with the Mexican drug cartel thing before he puts chips in brains. https:t.co1gXCjXg17O"
"1152688059097526278","TechCrunch","Sat Jul 20 21:13:43 +0000 2019","Elon Musk says Starship prototypes will have first test flights in 2 to 3 months https:t.cotyGfFRneYs by @etherington https:t.coB6SFtnJvHC"
"1152875627218952192","asemota","Sun Jul 21 09:39:03 +0000 2019","While Mr. Elon Musk has to only worry about the media and short sellers, Mr. Asemotas uncle has to worry about real things like assassins sent by those who are pissed that he passed when they wanted to corner him into making concessions he cant afford. He buys bulletproof cars."
"1153305689889992705","THRMattBelloni","Mon Jul 22 14:07:58 +0000 2019","New @THR: No superheroes, no Disney remakes, no sequels, and no agent telling him what to do. This is how Leonardo DiCaprio became Hollywoods last real movie star. https:t.coxUkJQfv50j"
"1153288636726763522","THR","Mon Jul 22 13:00:12 +0000 2019","His brand is excellence: How Leonardo DiCaprio became Hollywood's last movie star https:t.coGmWuRHVa4K https:t.co4pFQ99fKE5"
"1152603822218285056","RottenTomatoes","Sat Jul 20 15:39:00 +0000 2019","Leonardo DiCaprio, Brad Pitt and Kurt Russell star in a new clip for #OnceUponATimeInHollywood https:t.cohoJgZjWayS"
"1152775333994737666","newbeverly","Sun Jul 21 03:00:31 +0000 2019","Quentin Tarantino On Once Upon A Time, His Vision Of Star Trek As Pulp Fiction In Space, And Hopes To Turn Leo DiCaprio 50s Western Bounty Law Into Series https:t.co3MhGBW5gpt via @Deadline https:t.co82IYtjuEv3"
"1152854506276831234","TheNationalUAE","Sun Jul 21 08:15:07 +0000 2019","Aamir Khan, Rami Malek and Leonardo DiCaprio are among the latest to be honoured with a Dubai Star  https:t.cofKDReJFD7g"
"1153076048591933440","bdgrabinski","Sun Jul 21 22:55:27 +0000 2019","My main non spoiler takeaway from ONCE UPON A TIME IN HOLLYWOOD is this... Leonardo DiCaprio is one of the funniest actors alive."
"1152068375746473987","OnceInHollywood","Fri Jul 19 04:11:19 +0000 2019","Watch Leonardo DiCaprio, Brad Pitt, and Kurt Russell in this new clip from #OnceUponATimeInHollywood. https:t.cofq4OA2TcBe"
"1150743013636890624","TODAYshow","Mon Jul 15 12:24:48 +0000 2019",".@harrysmith sat down with the star-studded cast and director  Brad Pitt, Leonardo DiCaprio, Margot Robbie and Quentin Tarantino  of #OnceUponATimeInHollywood.  Robbie got the blessing from Sharon Tates sister to portray the late actress and even wore some of her jewelry. https:t.coZLZL0fA6OL"
"1150145432648949760","SonyPictures","Sat Jul 13 20:50:14 +0000 2019","Leonardo DiCaprio. Brad Pitt. Margot Robbie. Click through to meet the stars of #OnceUponATimeInHollywood: https:t.coeOjK1a5Pu0  https:t.coleJxxY5ak6"
"1151343653635461121","Complex","Wed Jul 17 04:11:32 +0000 2019","Leonardo DiCaprio still wont comment on whether his Titanic character could have been saved in the movie by floating on the door with Rose.   Like I said, I have no comment.  https:t.conw3j3je6xa https:t.coEGpoMOHQz0"
"1150884460314976257","joshuahorowitz","Mon Jul 15 21:46:52 +0000 2019","I asked Leonardo DiCaprio about the most important movie controversy of all time--could Jack have fit on that door at the end of TITANIC? @MargotRobbie and Brad Pitt had thoughts as well. CC: @JimCameron https:t.coYvss4RuGK3"
"1151642433781764099","getFANDOM","Wed Jul 17 23:58:47 +0000 2019","Quentin Tarantino says his possible Star Trek film would be 'Pulp Fiction in space'  'I've never read a [sci-fi] movie that has this sh*t in it ... There is a gangster element to what were doing with [it] that works out pretty good'  (via @DEADLINE | https:t.cozXK87kfhJv) https:t.cosBlh3oHHvB"
"1150806282963750912","people","Mon Jul 15 16:36:13 +0000 2019","Brad Pitt Is Eager to Work with Leonardo DiCaprio Again: 'I Want to Do a Christmas Album!' https:t.coBmHekH6g2Q"
"1153237562472800256","weareoneEXO","Mon Jul 22 09:37:15 +0000 2019","EXO-SC & The 1st Mini Album ['What a life']  iTunes: https:t.coI5FWMbQKhc Apple Music: https:t.coN560fF8ofz Spotify: https:t.coaU0CN1mGQR  # # #SEHUN #CHANYEOL #SEHUN_CHANYEOL #EXO_SC #Whatalife # #EXO #weareoneEXO #_Whatalife"
"1153286989053079552","realDonaldTrump","Mon Jul 22 12:53:39 +0000 2019","Highly conflicted Robert Mueller should not be given another bite at the apple. In the end it will be bad for him and the phony Democrats in Congress who have done nothing but waste time on this ridiculous Witch Hunt. Result of the Mueller Report, NO COLLUSION, NO OBSTRUCTION!..."
"1152749620549652480","lizzo","Sun Jul 21 01:18:21 +0000 2019","Bone apple titties https:t.coNkVty28tXH"
"1152927266021752834","JoelOsteen","Sun Jul 21 13:04:15 +0000 2019","When its your time, when God knows youre ready, what you give birth to is going to be much bigger than you think. Watch Joels message this morning on Podcast! It's Worth the Wait:                        Audio: https:t.cospV2a4HmrT https:t.covOVqwdaOzU"
"1153029467406651392","Beats1","Sun Jul 21 19:50:21 +0000 2019",".@NCTsmtown_127' s #HighwayToHeaven (ENG ver.) is streaming now. Hear the track and their plans for the rest of 2019.  https:t.coUyB7ogHkQQ #NCTZen https:t.co3qDpTzdBIV"
"1153227295395667968","1RealJoeyB","Mon Jul 22 08:56:27 +0000 2019","ok, myself, @sarkodie and @KwesiArthur_ will shoot a video for #LaFamilia today by popular demand. any ideas?  listen to the song and let me know.   https:t.coIETL4y4E3S"
"1153050639615664128","IAMSU","Sun Jul 21 21:14:29 +0000 2019","Its Always Pure Love (Deluxe) Out Now! 5 New Songs! #hbkgang    Spotify: https:t.coOoHlAxLI4W   Apple Music: https:t.coRnrY0CJDwW https:t.co6k1KScRJSw"
"1153306251956281345","billboard","Mon Jul 22 14:10:12 +0000 2019","Exclusive: Pre-sale begins for @BTS_twt's #LoveYourself concert films on @AppleTV app https:t.co1OWu1EfvVa https:t.coFVdjFzwxD3"
"1153141867699216385","euphoriaHBO","Mon Jul 22 03:17:00 +0000 2019","hear #EUPHORIA listen to music from tonight's episode.  @Spotify: https:t.coLkKhvJdx5u @AppleMusic: https:t.co9aO99bxRdC https:t.cowzYi6r2t1X"
"1153053898678165504","ShimonPro","Sun Jul 21 21:27:26 +0000 2019","'Very substantial evidence' Trump is 'guilty of high crimes and misdemeanors,' House Judiciary Chair says - CNN Politics https:t.coUBhotc111r"
"1152951017753010176","1RealJoeyB","Sun Jul 21 14:38:38 +0000 2019","IS LA FAMILIA BY JOEY B FT. @KwesiArthur_  & @sarkodie ON YOUR PLAYLIST YET!??  https:t.coIETL4y4E3S"
"1152764975808692225","keithellison","Sun Jul 21 02:19:22 +0000 2019","Did ya hear, @BernieSanders Tops Democrats' List of Most Liked 2020 Candidates: Gallup - Newsweek https:t.co8QTIYg6Dtf"
"1153241393684307969","joybhattacharj","Mon Jul 22 09:52:29 +0000 2019","I hate to be a party pooper, but the reason you see a picture of a satellite on a bullock cart is not because ISRO had no money for cars or trucks. This was the APPLE satellite in the early 80s & they needed to test it outdoors on a surface with no metal. So they choose a cart! https:t.cozQxDboIGSH"
"1152880899920408577","thisisinsider","Sun Jul 21 10:00:00 +0000 2019","This lettering artist has practiced calligraphy for eight years. Now, he's working with large brands like Apple and NASA https:t.coJFJa0CaPh3"
"1153027708567216128","TeamBandL","Sun Jul 21 19:43:22 +0000 2019","accessing music on the internet has gone thru some phases:  2000 - napster, kazaa, and limewire 2003 - itunes and myspace 2004 - beatport 2005 - pandora 2006 - youtube 2007 - soundcloud 2008 - bandcamp 2011 - spotify 2014 - apple music 2015 - tidal 2019 - tik tok"
"1152707253872369664","SaraCarterDC","Sat Jul 20 22:30:00 +0000 2019",".@Microsoft Corporation has filed 15,586 applications for foreign worker #H1Bvisa and 5,670 labor certifications for #greencard from fiscal year 2016 to 2018. Microsoft was ranked 11 among all visa sponsors. Average Salary $139,208 | What about Americans?  https:t.coRGF1Vx5D60"
"1152735739697881090","NatashaBertrand","Sun Jul 21 00:23:11 +0000 2019","Schiff says NSA and CIA didnt know that certain midterm candidates had been victims of attempted Russian hacks last year, which was discovered by Microsoft.  (Clarifying this from hacked) #AspenSecurity"
"1152953308811857921","woodruffbets","Sun Jul 21 14:47:44 +0000 2019","Wild moment yesterday at Aspen: Schiff said the CIA learned about Russian hacking efforts in 2018 when a Microsoft VP discussed them publicly https:t.coccEHikcSoE"
"1152730810841227264","AkiPeritz","Sun Jul 21 00:03:36 +0000 2019","Wait, what???   Didnt Microsoft or the Senate report it to, say, the DHS portal which should then report it to partner agencies??? https:t.cocwZZ8O9BUK"
"1153289143964725249","OpenAI","Mon Jul 22 13:02:13 +0000 2019",".@Microsoft is investing $1 billion in and partnering with OpenAI to support us building beneficial AGI: https:t.coueiPKAiXfa https:t.co8Ebu9knHAk"
"1153276719144607745","charliebilello","Mon Jul 22 12:12:51 +0000 2019","Top performing stocks in the Dow this year... Visa: +36.3% Microsoft: +35.6% Cisco: +35.1% IBM: +34.8% American Express: +32.4% 27 out of 30 positive. https:t.co7K3Iwu4IVk"
"1152935306619949056","GossiTheDog","Sun Jul 21 13:36:12 +0000 2019","A fun one is Windows 10 supports retrieving updates from other Windows 10 PCs rather just Microsoft, they cryptographically sign things and mesh like BitTorrent.  On my home PC a vast majority of update traffic now comes from other people's PCs, rather than Microsoft's CDN. https:t.co9YtRkjIIZA"
"1153309221536096256","melindagates","Mon Jul 22 14:22:00 +0000 2019","Women and people of color must be a part of building #AI, otherwise it will continue to reflect the human biases it was meant to eliminate. As @Microsofts @PeggyJ put it, The best way to turn anything around is to shine a light on it. https:t.coFtf7iLdpfR"
"1152714816127143941","Azure","Sat Jul 20 23:00:03 +0000 2019","Get a breakdown of the most important #Azure concepts, together with bite-sized lessons, exercises, and labs. Download the e-book: https:t.coLDbBNmroEP https:t.coIuAbjCkDXo"
"1153078366788096001","ValaAfshar","Sun Jul 21 23:04:40 +0000 2019","Founded:  1847 @Siemens 1865 Nokia 1876 Ericsson 1911 IBM 1928 Motorola 1938 Samsung 1939 HP 1946 Sony 1968 Intel 1975 Microsoft 1976 Apple 1984 Cisco, Dell 1994 Amazon 1997 Netflix 1998 Google 1999 Salesforce, Alibaba 2003 Tesla 2004 Facebook 2006 Twitter 2008 Airbnb 2009 Uber"
"1153092291550011392","allinwithchris","Mon Jul 22 00:00:00 +0000 2019","Microsoft will give away software to guard U.S. voting machines. https:t.coOVvCocINDV #inners"
"1152862943371042821","CBSNews","Sun Jul 21 08:48:39 +0000 2019","Iranian cyber activity spiked after U.S. withdrawal from nuclear deal, says Microsoft official https:t.colg4febUClf https:t.coauPZVi65fN"
"1153305797394358274","verge","Mon Jul 22 14:08:24 +0000 2019","Microsoft invests $1 billion in OpenAI to pursue holy grail of artificial intelligence https:t.coPgunbSq7AS https:t.co5MOcteZClP"
"1152956848586276865","Jkylebass","Sun Jul 21 15:01:48 +0000 2019","Its rumored this morning that a mini-deal allowing component sales to huawei might be restarted of the chinese buy US soybeans. We shouldnt trade our national security to make a few farmers and fat cat CEOs happy. What a disgrace for Trump if it happens. https:t.coyTAJsrxIKq"
"1153261487688998915","John_Hudson","Mon Jul 22 11:12:19 +0000 2019","SCOOP: Leaked documents reveal Huaweis secret operations in North Korea. The embattled Chinese tech giant helped build and maintain North Koreas wireless phone network as the pariah state came under tighter sanctions. By @nakashimae @gerryshih & me  https:t.coDisLPWiTkq"
"1153279586869960704","Jkylebass","Mon Jul 22 12:24:15 +0000 2019","huawei- the worlds telecom Dirty Bomb, built and maintained North Koreas internet and wireless networks. The West must BAN huawei from building their 5-xi Trojan Horse networks. Trump better not use huawei as a trade bargaining chip. #Dirtybomb  https:t.codBDxNBd4Nc"
"1153263513093066752","gerryshih","Mon Jul 22 11:20:22 +0000 2019","NEW: extensive docs, interviews reveal Huawei quietly built and managed North Korea's telecoms network with the help of a Chinese front company with extensive ties to Beijing, with @nakashimae @John_Hudson https:t.coKPPzAf3s2j"
"1152899137353875458","ChinaPlusNews","Sun Jul 21 11:12:28 +0000 2019","A second #Huawei handset has been granted a license to use China's #5G network. https:t.co6cK1Xv0kV4"
"1153283053529313280","thehill","Mon Jul 22 12:38:01 +0000 2019","JUST IN: Leaked documents show Huawei helped North Korea build wireless network: report https:t.cozVh880zTFx https:t.co0V1WnBX5Bm"
"1152650631104073733","XHNews","Sat Jul 20 18:45:00 +0000 2019","Downloading a two-hour long movie in just eight seconds on a 5G cell phone, 5G has arrived in Ecuador with cooperation of Chinese company Huawei https:t.cogWVqwxsujj"
"1153270363503104002","nakashimae","Mon Jul 22 11:47:36 +0000 2019","Leaked documents reveal Huaweis secret operations to build North Koreas wireless network - my latest with @gerryshih @John_Hudson  https:t.co612ctFaSIf"
"1152820529268711424","business","Sun Jul 21 06:00:07 +0000 2019","The EU said it may deem certain 5G suppliers a security risk, which could exclude Huawei from European networks https:t.coh3TLa1nUDB"
"1152820500881727488","HuaweiFacts","Sun Jul 21 06:00:00 +0000 2019","Failed campaign: Despite a year full of lobbying and extensive threats, the U.S. has not been able to convince a single European country to formally or fully exclude #Huawei from their #5G network. #HuaweiFacts"
"1152885171424772096","Huawei_Europe","Sun Jul 21 10:16:59 +0000 2019","Nearly 60 per cent of Huaweis 50 5G contracts are from Europe https:t.cowVwJRdCcom via @scmpnews"
"1153211643267956737","phoneradarblog","Mon Jul 22 07:54:16 +0000 2019","#Huawei #Mate20X5G to Launch in China on July 26  Read More: https:t.co5QZEDBLGx7 https:t.coumKEqY0zln"
"1152820533471436806","WSJ","Sun Jul 21 06:00:08 +0000 2019","In a blow to the U.S., the Philippines got its first taste of next-generation 5G services with gear supplied by Huawei https:t.coQyZVuu5z3z"
"1153281479184658433","realDonaldTrump","Mon Jul 22 12:31:46 +0000 2019","The Amazon Washington Post front page story yesterday was total Fake News. They said Advisors wrote new talking points and handed him reams of opposition research on the four Congresswomen. Now really, does that sound like me? What advisors, there were no talking points,...."
"1153112072621842437","ChelseaClinton","Mon Jul 22 01:18:36 +0000 2019","Shameful: House Republicans Are Pressuring Amazon to Sell Books on Gay Conversion Therapy, a form of child abuse. From @vicenews https:t.coqCbab1tdGG"
"1153288668473257985","slipknot","Mon Jul 22 13:00:20 +0000 2019","SOLWAY FIRTH | New song & video out now, featuring footage from the new Amazon Original series @TheBoysTV created with @UPROXX and Amazon Prime Video. Watch here: https:t.coocEwpFbGmi #WeAreNotYourKind https:t.co4oq5cTjNN6"
"1152925049076232192","sarahkendzior","Sun Jul 21 12:55:26 +0000 2019","There is a special one-day sale of my book The View From Flyover Country on Amazon -- today you can get the ebook version for only $2.99! https:t.co60d05BR9vr"
"1153118162533191680","davidcicilline","Mon Jul 22 01:42:48 +0000 2019","House Republicans Are Pressuring Amazon to Sell Books on Gay Conversion Therapy  This is sick. Thanks to @dnewhauser for shining some much needed light here. https:t.coSd2QhXzVlA"
"1152693626457088000","Casanvar","Sat Jul 20 21:35:51 +0000 2019","Saddle up ya'll...time to rock the world again with the new season 4 dropping like gravity December 13th!  #TheExpanse #TheExpanseSeason4  @ExpanseOnPrime  @PrimeVideo  @amazon  @SAghdashloo  @Mi55Tipper  @weschatham  @ffrankieadams https:t.con3PViJ4Wl9"
"1152967172139999234","dbongino","Sun Jul 21 15:42:49 +0000 2019","What happened behind-the-scenes in July, 2017 in the Mueller witch-hunt will blow your mind. My new book Exonerated will blow the cover off of the scandal.  Available for preorder now here  https:t.cogKkON34N7Y"
"1153139237258027008","RealSaavedra","Mon Jul 22 03:06:33 +0000 2019","Steve Hilton rips @Amazon over the potential corruption surrounding the JEDI contract, calls on @realDonaldTrump to cancel the deal: Draining the swamp means stopping this contract ... It's not just appropriate but vital that [Trump] kills this contract https:t.cozAmgknhGif"
"1152916984436338688","AmnestyNigeria","Sun Jul 21 12:23:23 +0000 2019","Today, we honour Nigerian author, Buchi Emecheta on what would have been her 75th birthday.   She was a trail blazer who used her work to address issues on marginalisation of women and girls, patriarchal oppression, racism, poverty and social exclusion.   We celebrate an amazon. https:t.coSFSOzS9859"
"1153120541315719169","Stands","Mon Jul 22 01:52:15 +0000 2019","When you visit https:t.coTObPX1vgSc you will find an Amazon wishlist of items that will be delivered directly to refugees at our Texas border. Over the next week the cast will be sharing photos of who we will be helping with you. This is a giant love letter to them and you. https:t.coDjJoW49m0T"
"1152895998387036160","ExpanseOnPrime","Sun Jul 21 11:00:00 +0000 2019","Landing on new terra December 13th. Only on Amazon @PrimeVideo. #TheExpanse https:t.cosXbelCwnq8"
"1153297949214085121","kimguilfoyle","Mon Jul 22 13:37:12 +0000 2019","Congratulations to @DonaldJTrumpJr on his forthcoming book #TRIGGERED! Ive seen him working on this project for months, you wont want to miss it! Must read! https:t.coORsWyY2CpQ"
"1152765638550552576","RoKhanna","Sun Jul 21 02:22:00 +0000 2019","Those who want to privatize the United States Postal Service claim that its because theres a financial crisis.  Lets not forget that Congress passed a law in 2006 that required the USPS to pre-fund employee retirement benefits up through 2056!  https:t.cosrXKRL7oOJ"
"1152676289507155970","dliebelson","Sat Jul 20 20:26:57 +0000 2019","moving is the best reminder to buy nothing, close down your amazon account, move to the woods, use one fork until death."
"1153095310136270849","charliekirk11","Mon Jul 22 00:12:00 +0000 2019","Chuck Schumer has been in office for 38 years  Nancy Pelosi has been in office for 32 years  Maxine Waters has been in office for 28 years  Joe Biden was in office for 44 years  Yet they blame all of America's problems on Donald Trump, who hasn't even been in office 3 years?  "
"1152969229169307648","joncoopertweets","Sun Jul 21 15:51:00 +0000 2019","Donald Trump is a racist. Don Trump Jr is a racist. Eric Trump is a racist. Melania Trump defends her husbands racist comments. Lara Trump defends her father-in-laws racist comments. Ivanka Trump is silent on her fathers racist comments.  ANYONE SEE THE COMMON DENOMINATOR? "
"1152979129609986049","JoyAnnReid","Sun Jul 21 16:30:20 +0000 2019","Donald Trump's ACTUAL CAMPAIGN SLOGAN was that America was not great. But he wasn't told to love it or leave it. https:t.coIEKfZaVuYT"
"1153074705139716097","charliekirk11","Sun Jul 21 22:50:07 +0000 2019","This is your daily reminder that Hillary Clinton & the DNC paid hundreds of thousands of dollars for a foreign agent to dig dirt on Donald Trump from Russian sources, and used it to spy on his campaign  ...And then claimed that Trump was the one colluding with a foreign power  "
