{
  "@context": {
    "@vocab": "http://schema.org/",
    "goog": "http://schema.googleapis.com/",
    "EntitySearchResult": "goog:EntitySearchResult",
    "detailedDescription": "goog:detailedDescription",
    "resultScore": "goog:resultScore",
    "kg": "http://g.co/kg"
  },
  "@type": "ItemList",
  "itemListElement": [
    {
      "@type": "EntitySearchResult",
      "result": {
        "@id": "kg:/m/06ys2",
        "name": "Spider-Man",
        "@type": [
          "Thing"
        ],
        "description": "Fictional superhero",
        "detailedDescription": {
          "articleBody": "Spider-Man is a fictional superhero created by writer-editor Stan Lee and writer-artist Steve Ditko. He first appeared in the anthology comic book Amazing Fantasy #15 in the Silver Age of Comic Books. ",
          "url": "https://en.wikipedia.org/wiki/Spider-Man",
          "license": "https://en.wikipedia.org/wiki/Wikipedia:Text_of_Creative_Commons_Attribution-ShareAlike_3.0_Unported_License"
        },
        "image": {
          "contentUrl": "http://t0.gstatic.com/images?q=tbn:ANd9GcQSxAIA3XHJyA2XzWgm-KWJUmOvBGHxsPgEX3zINZspcgcZuZtC",
          "url": "https://commons.wikimedia.org/wiki/File:Spiderman.JPG"
        },
        "url": "http://marvel.com/characters/bio/1009610/spider-man"
      },
      "resultScore": 158.339554
    },
    {
      "@type": "EntitySearchResult",
      "result": {
        "@id": "kg:/m/0hnws",
        "name": "Iron Man",
        "@type": [
          "Thing"
        ],
        "description": "Fictional superhero",
        "detailedDescription": {
          "articleBody": "Iron Man is a fictional superhero appearing in American comic books published by Marvel Comics. The character was co-created by writer and editor Stan Lee, developed by scripter Larry Lieber, and designed by artists Don Heck and Jack Kirby. ",
          "url": "https://en.wikipedia.org/wiki/Iron_Man",
          "license": "https://en.wikipedia.org/wiki/Wikipedia:Text_of_Creative_Commons_Attribution-ShareAlike_3.0_Unported_License"
        },
        "image": {
          "contentUrl": "http://t3.gstatic.com/images?q=tbn:ANd9GcTjPWYykxexiwDlBME2_Qwi1l6GXXldN4BxtReq9F5CB60dwhal",
          "url": "https://commons.wikimedia.org/wiki/File:Iron_Man_Repulsors_(14041559344).jpg"
        }
      },
      "resultScore": 125.336853
    },
    {
      "@type": "EntitySearchResult",
      "result": {
        "@id": "kg:/m/012bkz",
        "name": "MAN SE",
        "@type": [
          "Corporation",
          "Thing",
          "Organization"
        ],
        "description": "Automotive company",
        "detailedDescription": {
          "articleBody": "MAN SE, formerly MAN AG, is a German mechanical engineering company and parent company of the MAN Group. It is a subsidiary of automaker Volkswagen AG. MAN SE is based in Munich. Its primary output is for the automotive industry, particularly heavy trucks. ",
          "url": "https://en.wikipedia.org/wiki/MAN_SE",
          "license": "https://en.wikipedia.org/wiki/Wikipedia:Text_of_Creative_Commons_Attribution-ShareAlike_3.0_Unported_License"
        },
        "image": {
          "contentUrl": "http://t1.gstatic.com/images?q=tbn:ANd9GcQxIs_5H56QN2C6YYJz5Y04fpdaWuilwfqRkhqLIXFGcNevnsEV",
          "url": "https://commons.wikimedia.org/wiki/File:MAN_logo.JPG"
        },
        "url": "http://www.man.eu/"
      },
      "resultScore": 122.732353
    },
    {
      "@type": "EntitySearchResult",
      "result": {
        "@id": "kg:/m/03t1s",
        "name": "Isle of Man",
        "@type": [
          "AdministrativeArea",
          "Thing",
          "Country",
          "Place"
        ],
        "description": "State",
        "detailedDescription": {
          "articleBody": "The Isle of Man, often referred to simply as Mann, is a self-governing British Crown dependency in the Irish Sea between Great Britain and Ireland. ",
          "url": "https://en.wikipedia.org/wiki/Isle_of_Man",
          "license": "https://en.wikipedia.org/wiki/Wikipedia:Text_of_Creative_Commons_Attribution-ShareAlike_3.0_Unported_License"
        },
        "image": {
          "contentUrl": "http://t1.gstatic.com/images?q=tbn:ANd9GcRs-4CVvPvghC6eX5pW-OJ32eGOzQcVIjg4YiG8bTOQ_nyPg1YK",
          "url": "https://commons.wikimedia.org/wiki/File:Flag_of_the_Isle_of_Mann.svg"
        }
      },
      "resultScore": 101.752953
    },
    {
      "@type": "EntitySearchResult",
      "result": {
        "@id": "kg:/m/0cnx898",
        "name": "MAN Truck &amp; Bus",
        "@type": [
          "Organization",
          "Thing",
          "Corporation"
        ],
        "description": "Commercial company",
        "detailedDescription": {
          "articleBody": "MAN Truck &amp; Bus AG is the largest subsidiary of the MAN SE corporation, and one of the leading international providers of commercial vehicles. ",
          "url": "https://en.wikipedia.org/wiki/MAN_Truck_%26_Bus",
          "license": "https://en.wikipedia.org/wiki/Wikipedia:Text_of_Creative_Commons_Attribution-ShareAlike_3.0_Unported_License"
        },
        "image": {
          "contentUrl": "http://t1.gstatic.com/images?q=tbn:ANd9GcQSFxQ_hj0PQ1oIvesNf379P1GTapgm8axDbxyOIsVwNQp21qeU",
          "url": "https://commons.wikimedia.org/wiki/File:MAN_LKW_Frontnamen.jpg"
        }
      },
      "resultScore": 75.646339
    },
    {
      "@type": "EntitySearchResult",
      "result": {
        "@id": "kg:/m/070vn",
        "name": "Superman",
        "@type": [
          "Thing"
        ],
        "description": "Fictional superhero",
        "detailedDescription": {
          "articleBody": "Superman is a fictional superhero. The character was created by writer Jerry Siegel and artist Joe Shuster, and first appeared in Action Comics #1, a comic book published on April 18, 1938. ",
          "url": "https://en.wikipedia.org/wiki/Superman",
          "license": "https://en.wikipedia.org/wiki/Wikipedia:Text_of_Creative_Commons_Attribution-ShareAlike_3.0_Unported_License"
        },
        "image": {
          "contentUrl": "http://t0.gstatic.com/images?q=tbn:ANd9GcRKoz1Z4FUiRPqBugiIKr6elByEHr3a_M_VykK_RB9Qj7-9nBYW",
          "url": "https://hu.wikipedia.org/wiki/Superman:_A_rajzfilmsorozat"
        },
        "url": "http://www.superman.com/"
      },
      "resultScore": 74.415085
    },
    {
      "@type": "EntitySearchResult",
      "result": {
        "@id": "kg:/g/121_j7v2",
        "name": "Miles Morales",
        "@type": [
          "Thing"
        ],
        "description": "Fictional superhero",
        "detailedDescription": {
          "articleBody": "Miles Gonzalo Morales is a fictional comic book superhero appearing in publications by the American publisher Marvel Comics, and one of the characters known as Spider-Man. ",
          "url": "https://en.wikipedia.org/wiki/Miles_Morales",
          "license": "https://en.wikipedia.org/wiki/Wikipedia:Text_of_Creative_Commons_Attribution-ShareAlike_3.0_Unported_License"
        }
      },
      "resultScore": 74.034706
    },
    {
      "@type": "EntitySearchResult",
      "result": {
        "@id": "kg:/m/012s1d",
        "name": "Spider-Man",
        "@type": [
          "Movie",
          "Thing"
        ],
        "description": "2002 film",
        "detailedDescription": {
          "articleBody": "Spider-Man is a 2002 American superhero film based on the Marvel Comics character of the same name. Directed by Sam Raimi from a screenplay by David Koepp, it is the first installment in the Spider-Man trilogy, and stars Tobey Maguire as the title character, alongside Willem Dafoe, Kirsten Dunst, James Franco, Cliff Robertson, and Rosemary Harris. ",
          "url": "https://en.wikipedia.org/wiki/Spider-Man_(2002_film)",
          "license": "https://en.wikipedia.org/wiki/Wikipedia:Text_of_Creative_Commons_Attribution-ShareAlike_3.0_Unported_License"
        },
        "url": "http://www.spiderman.sonypictures.com/"
      },
      "resultScore": 73.752449
    },
    {
      "@type": "EntitySearchResult",
      "result": {
        "@id": "kg:/m/027clp",
        "name": "Hank Pym",
        "@type": [
          "Thing"
        ],
        "description": "Fictional character",
        "detailedDescription": {
          "articleBody": "Dr. Henry Pym is a fictional character appearing in American comic books published by Marvel Comics. Created by penciler Jack Kirby, editor-plotter Stan Lee and scripter Larry Lieber, the character first appeared in Tales to Astonish #27. ",
          "url": "https://en.wikipedia.org/wiki/Hank_Pym",
          "license": "https://en.wikipedia.org/wiki/Wikipedia:Text_of_Creative_Commons_Attribution-ShareAlike_3.0_Unported_License"
        }
      },
      "resultScore": 73.695473
    },
    {
      "@type": "EntitySearchResult",
      "result": {
        "@id": "kg:/m/01d5g",
        "name": "Batman",
        "@type": [
          "Thing"
        ],
        "description": "Fictional superhero",
        "detailedDescription": {
          "articleBody": "Batman is a fictional superhero appearing in American comic books published by DC Comics. The character was created by artist Bob Kane and writer Bill Finger, and first appeared in Detective Comics #27 in 1939. ",
          "url": "https://en.wikipedia.org/wiki/Batman",
          "license": "https://en.wikipedia.org/wiki/Wikipedia:Text_of_Creative_Commons_Attribution-ShareAlike_3.0_Unported_License"
        },
        "image": {
          "contentUrl": "http://t0.gstatic.com/images?q=tbn:ANd9GcTNh_2kQivDHDpV-VmlryD0CQbAPhi_u2HOKNV9UlR1nW2oc0pv",
          "url": "https://commons.wikimedia.org/wiki/File:Batman_(retouched).jpg"
        },
        "url": "http://www.dccomics.com/batman"
      },
      "resultScore": 73.023659
    },
    {
      "@type": "EntitySearchResult",
      "result": {
        "@id": "kg:/m/0jt_x",
        "name": "Pac-Man",
        "@type": [
          "VideoGame",
          "Thing"
        ],
        "description": "Arcade game",
        "detailedDescription": {
          "articleBody": "Pac-Man is a maze arcade game developed and released by Namco in 1980. The original Japanese title of Puck Man was changed to Pac-Man for international releases as a preventative measure against defacement of the arcade machines. ",
          "url": "https://en.wikipedia.org/wiki/Pac-Man",
          "license": "https://en.wikipedia.org/wiki/Wikipedia:Text_of_Creative_Commons_Attribution-ShareAlike_3.0_Unported_License"
        },
        "image": {
          "contentUrl": "http://t0.gstatic.com/images?q=tbn:ANd9GcT-lxypaP7T-HMD8cqTB7btLujWm2ktYgysxRdjNc2zh3v6A523",
          "url": "https://commons.wikimedia.org/wiki/File:Mspacmancabinet.png"
        },
        "url": "http://pacman.com/"
      },
      "resultScore": 73.011429
    },
    {
      "@type": "EntitySearchResult",
      "result": {
        "@id": "kg:/m/0dzlbx",
        "name": "Iron Man",
        "@type": [
          "Movie",
          "Thing"
        ],
        "description": "2008 film",
        "detailedDescription": {
          "articleBody": "Iron Man is a 2008 American superhero film based on the Marvel Comics character of the same name, produced by Marvel Studios and distributed by Paramount Pictures. ",
          "url": "https://en.wikipedia.org/wiki/Iron_Man_(2008_film)",
          "license": "https://en.wikipedia.org/wiki/Wikipedia:Text_of_Creative_Commons_Attribution-ShareAlike_3.0_Unported_License"
        },
        "url": "http://marvel.com/movies/movie/19/iron_man"
      },
      "resultScore": 68.864449
    },
    {
      "@type": "EntitySearchResult",
      "result": {
        "@id": "kg:/m/010dmf",
        "name": "Isle of Man TT",
        "@type": [
          "Thing"
        ],
        "detailedDescription": {
          "articleBody": "The Isle of Man TT or Tourist Trophy races are an annual motorcycle sport event run on the Isle of Man in May/June of most years since its inaugural race in 1907, and is often called one of the most dangerous racing events in the world.\n",
          "url": "https://en.wikipedia.org/wiki/Isle_of_Man_TT",
          "license": "https://en.wikipedia.org/wiki/Wikipedia:Text_of_Creative_Commons_Attribution-ShareAlike_3.0_Unported_License"
        },
        "image": {
          "contentUrl": "http://t2.gstatic.com/images?q=tbn:ANd9GcT_ldxrggR-xyzvX7NMC-jKZidsJDSl3LqbPpyzfd8B1Z7IoPTi",
          "url": "https://commons.wikimedia.org/wiki/File:2013_Isle_of_Man_TT_13.jpg"
        }
      },
      "resultScore": 66.004326
    },
    {
      "@type": "EntitySearchResult",
      "result": {
        "@id": "kg:/m/0drwdd_",
        "name": "Ultimate Spider-Man",
        "@type": [
          "TVSeries",
          "Thing",
          "WebSite",
          "CreativeWork"
        ],
        "description": "American animated series",
        "detailedDescription": {
          "articleBody": "Ultimate Spider-Man is an American animated television series based on the Spider-Man comics published by Marvel Comics. The series featured writers such as Brian Michael Bendis, Paul Dini, and Man of Action. ",
          "url": "https://en.wikipedia.org/wiki/Ultimate_Spider-Man_(TV_series)",
          "license": "https://en.wikipedia.org/wiki/Wikipedia:Text_of_Creative_Commons_Attribution-ShareAlike_3.0_Unported_License"
        },
        "url": "http://disneyxd.disney.com/ultimate-spider-man"
      },
      "resultScore": 63.543324
    },
    {
      "@type": "EntitySearchResult",
      "result": {
        "@id": "kg:/m/01f7d",
        "name": "Booker Prize",
        "@type": [
          "Thing"
        ],
        "description": "Award",
        "detailedDescription": {
          "articleBody": "The Booker Prize for Fiction is a literary prize awarded each year for the best original novel written in the English language and published in the United Kingdom. ",
          "url": "https://en.wikipedia.org/wiki/Booker_Prize",
          "license": "https://en.wikipedia.org/wiki/Wikipedia:Text_of_Creative_Commons_Attribution-ShareAlike_3.0_Unported_License"
        },
        "url": "http://www.themanbookerprize.com/"
      },
      "resultScore": 61.880287
    },
    {
      "@type": "EntitySearchResult",
      "result": {
        "@id": "kg:/m/03bw_jk",
        "name": "Ant-Man",
        "@type": [
          "Thing"
        ],
        "description": "Fictional superhero",
        "detailedDescription": {
          "articleBody": "Ant-Man (Scott Lang) is a fictional superhero appearing in American comic books published by Marvel Comics. Created by David Michelinie and John Byrne, Scott Lang first appeared in The Avengers #181 and in Marvel Premiere #47 as the second superhero character to use the Ant-Man name in the Marvel Universe. ",
          "url": "https://en.wikipedia.org/wiki/Ant-Man_(Scott_Lang)",
          "license": "https://en.wikipedia.org/wiki/Wikipedia:Text_of_Creative_Commons_Attribution-ShareAlike_3.0_Unported_License"
        }
      },
      "resultScore": 61.337387
    },
    {
      "@type": "EntitySearchResult",
      "result": {
        "@id": "kg:/m/01kx_7",
        "name": "Spider-Man",
        "@type": [
          "TVSeries",
          "Thing"
        ],
        "description": "Animated series",
        "detailedDescription": {
          "articleBody": "Spider-Man, also known as Spider-Man: The Animated Series, is an American animated television series based on the Marvel Comics superhero of the same name. ",
          "url": "https://en.wikipedia.org/wiki/Spider-Man_(1994_TV_series)",
          "license": "https://en.wikipedia.org/wiki/Wikipedia:Text_of_Creative_Commons_Attribution-ShareAlike_3.0_Unported_License"
        },
        "url": "http://members.aol.com/drg4/index.html?f=fs"
      },
      "resultScore": 60.306065
    },
    {
      "@type": "EntitySearchResult",
      "result": {
        "@id": "kg:/g/11bzx4tgt5",
        "name": "Spider-Man",
        "@type": [
          "VideoGame",
          "Thing"
        ],
        "description": "Video game",
        "detailedDescription": {
          "articleBody": "Marvel's Spider-Man is a 2018 action-adventure game developed by Insomniac Games and published by Sony Interactive Entertainment. ",
          "url": "https://en.wikipedia.org/wiki/Spider-Man_(2018_video_game)",
          "license": "https://en.wikipedia.org/wiki/Wikipedia:Text_of_Creative_Commons_Attribution-ShareAlike_3.0_Unported_License"
        },
        "url": "http://www.insomniacgames.com/games/spider-man-ps4/"
      },
      "resultScore": 59.997444
    },
    {
      "@type": "EntitySearchResult",
      "result": {
        "@id": "kg:/m/03s2rs",
        "name": "World's Strongest Man",
        "@type": [
          "Thing"
        ],
        "detailedDescription": {
          "articleBody": "The World's Strongest Man is an international strongman competition held every year. Organized by IMG, an Endeavor company, it is broadcast in the US during summers and in the UK around the end of December each year. ",
          "url": "https://en.wikipedia.org/wiki/World's_Strongest_Man",
          "license": "https://en.wikipedia.org/wiki/Wikipedia:Text_of_Creative_Commons_Attribution-ShareAlike_3.0_Unported_License"
        },
        "image": {
          "contentUrl": "http://t0.gstatic.com/images?q=tbn:ANd9GcSKFAfIp6_LTqeVnCHWHheAo5cdDTkDWWcXxnYnAX0t3gwanmEO",
          "url": "https://commons.wikimedia.org/wiki/File:Igor_Pedan_-_World%27s_Strongest_Man_competition_2007.jpg"
        }
      },
      "resultScore": 59.236347
    },
    {
      "@type": "EntitySearchResult",
      "result": {
        "@id": "kg:/m/01cy43",
        "name": "Burning Man",
        "@type": [
          "Thing"
        ],
        "detailedDescription": {
          "articleBody": "Burning Man is an event held annually in the western United States at Black Rock City, a temporary city erected in the Black Rock Desert of northwest Nevada, approximately 100 miles north-northeast of Reno. ",
          "url": "https://en.wikipedia.org/wiki/Burning_Man",
          "license": "https://en.wikipedia.org/wiki/Wikipedia:Text_of_Creative_Commons_Attribution-ShareAlike_3.0_Unported_License"
        },
        "image": {
          "contentUrl": "http://t0.gstatic.com/images?q=tbn:ANd9GcRXtwqj-l4dZkDHxIANxY7bLFCtDpmNuHroqw_-30i_BU0gQBLn",
          "url": "https://commons.wikimedia.org/wiki/File:Burning_Man_aerial.jpg"
        },
        "url": "http://www.burningman.com"
      },
      "resultScore": 57.108273
    }
  ]
}
