id,screen_name,created_at,full_text,tag,repr_tag,class
1153004571129630721,pottermore,Sun Jul 21 18:11:26 +0000 2019,Wingardium Quiz-iosa! How much do this year's Comic Con attendees know about Harry Potter? Cursed Child's Nicholas Podany took to the streets of San Diego to find out. #SDCC2019 https:t.cogH5zB9BWUm,Place,Place,Place
1153174962351460353,fart,Mon Jul 22 05:28:30 +0000 2019,harry potter https:t.co3pL05BAQGd,Person,Person,Person
1152651889550516224,businessinsider,Sat Jul 20 18:50:00 +0000 2019,"10 years after the final Harry Potter book, Rowling was still the highest-paid novelist in the world https:t.coQm7On5BSLX",BookSeries,BookSeries,Book
1153020457135874048,XHNews,Sun Jul 21 19:14:33 +0000 2019,Disney's The Lion King is breaking records with a $185 million opening at the domestic box office. It surpasses 2011's Harry Potter and the Deathly Hallows Part 2 to become the biggest July opening ever https:t.cotG07Uvc6hM,Movie,Movie,Movie
1152950607348563968,businessinsider,Sun Jul 21 14:37:00 +0000 2019,The Harry Potter mastermind has totalled $150 million in charitible donations over the years https:t.cojX6INLHqR7,Organization,Organization,Organization
1150800374586105856,Complex,Mon Jul 15 16:12:44 +0000 2019,"8 years ago, the final Harry Potter movie was released in theaters   https:t.coLQFjp7lxBt",Movie,Movie,Movie
1153035694455083008,Telegraph,Sun Jul 21 20:15:06 +0000 2019,Historic steam trains - like the 'Harry Potter' Jacobite Express in Scotland - could be forced off the tracks https:t.cof3zZVV9mZk,Place,Place,Place
1152788601320747009,colton,Sun Jul 21 03:53:14 +0000 2019,3. Shes currently buried in her kindle... right now shes reading Harry Potter,BookSeries,BookSeries,Book
1152639980352626688,HPWizardsUnite,Sat Jul 20 18:02:40 +0000 2019,"Wizards, make sure to tag your photos of you and your friends playing the first Harry Potter: Wizards Unite Community Day with #WizardsUnite. Well share some of our favorites! https:t.co19u6AuaCFh",VideoGame,VideoGame,VideoGame
1153260655031574528,CommunitiesNI,Mon Jul 22 11:09:01 +0000 2019,Public Record Office NI delighted to help actor Daniel Radcliffe aka Harry Potter as he researched his family history as part of a new series of @WDYTYA_UK  which starts tonight on @BBCOne https:t.coJOuu9ESi5x,Organization,Organization,Organization
1152625181082443777,businessinsider,Sat Jul 20 17:03:52 +0000 2019,'The Lion King' is on its way to beating a box-office record held by the 'Harry Potter' finale https:t.covYFAnVGAZL,Movie,Movie,Movie
1152622678366457858,CherryWallis,Sat Jul 20 16:53:55 +0000 2019,"Im not going home, not really.  - Harry Potter   Today myself and @ItsVegard decided to head back to Hogwarts a little early...  https:t.codcUYUh2lmY","BookSeries, MovieSeries",BookSeries,Book
1152550355185655810,lukewaltham,Sat Jul 20 12:06:32 +0000 2019,I still wonder how everyone in the Great Hall wouldve reacted if Harry Potter was sorted into Slytherin House.,Place,Place,Place
1152615236475580417,HPPlayLDN,Sat Jul 20 16:24:21 +0000 2019,Wingardium Quiz-iosa!   Do YOU know more about Harry Potter than these Comic-Con attendees? #SDCC50 https:t.co8msW4K5HLN,BookSeries,BookSeries,Book
1152597132160856065,ScottMendelson,Sat Jul 20 15:12:25 +0000 2019,THE LION KING Breaks Disney Box Office Records With Massive $78.5 Million Friday via @forbes by @ScottMendelson https:t.coWHoFR8oeRI  #TheLionKing #BoxOffice #Beyonce #DonaldGlover #SethRogen #JohnOliver #HarryPotter #TheDarkKnight #PiratesOfTheCaribbean #WaltDisney #StarWars,Movie,Movie,Movie
1150206824634654720,Cloud9,Sun Jul 14 00:54:11 +0000 2019,"LCS ARENA, JUNE 13TH 2019  PETITION TO DELETE YUMMI FROM THE LEAGUE OF LEGENDS GAME  _____________________________               SIGN HERE",VideoGame,VideoGame,VideoGame
1150631073597931520,sportbible,Mon Jul 15 05:00:00 +0000 2019,"366 games  220 wins  7 titles   Roy Keane has been named the greatest Premier League captain of all time, ahead of Steven Gerrard and John Terry. https:t.coGacl0I7oiX",Person,Person,Person
1150257487360086016,proxywolf,Sun Jul 14 04:15:30 +0000 2019,"Gamsu of the Shanghai Dragons has been a positive force throughout his career-- from League of Legends to Overwatch League. His positive attitude has brought smiles to faces around the world. He is my front-runner for the 2019 Dennis Hawelka award. Grats on your finals, @GamsuOW","SportsTeam, VideoGame",VideoGame,VideoGame
1150627294655868928,FionnOnFire,Mon Jul 15 04:44:59 +0000 2019,best team in counter-strike is north american best league of legends team is european best overwatch team is a south korean   esports finally balanced,VideoGame,VideoGame,VideoGame
1152223205706346497,uk_lol,Fri Jul 19 14:26:34 +0000 2019,"Demacia Vice Garen and Lucian are available now in League of Legends, but what do they do outside of the game? THEY GET RESULTS  (Thank you @kiandymundi for this important message) https:t.coocdoih8pKP",VideoGame,VideoGame,VideoGame
1151873125199634440,Froskurinn,Thu Jul 18 15:15:28 +0000 2019,"Why are you so grumpy? You just won at league of legends!  What? No, I just lost.  No you didn't! I saw it said 'Ace'!  Yeah, we got aced. They killed all of us.  Oh...I thought it meant like...'ace job!'. Sorry.",VideoGame,VideoGame,VideoGame
1152003293465341952,PhantomL0rd,Thu Jul 18 23:52:43 +0000 2019,"League of Legends friends! - I'm now starting my PURE GAMEPLAY ONLY Streams on https:t.cosbwNLMXXJk  This will be combination of League Classic & TFT, returning to all the fun things you enjoyed and loved about OLD Phantom. Giving it my all, PROMISE!  NO GAMBLEL0RD! https:t.coidPl7ZhhVD",VideoGame,VideoGame,VideoGame
1150135283326869509,Lazerchickenzzz,Sat Jul 13 20:09:54 +0000 2019,Splyce cant compete with top teams Splyce play boring league of legends Splyce are in the middle of the pack Their midlaner isnt strong enough  They dont know how to play early   Good thing we dont listen to what people think #LEC #OnTheHunt,"SportsTeam, VideoGame",SportsTeam,Sports
1151560473625554944,Nightbloo,Wed Jul 17 18:33:06 +0000 2019,League of Legends is my favorite RNG-based game.,VideoGame,VideoGame,VideoGame
1152998568409612289,repmarkpocan,Sun Jul 21 17:47:35 +0000 2019,"When white nationalist Stephen Miller is the best option to defend you, youre definitely xenophobic and racist. https:t.cobQE00yl3p4",Person,Person,Person
1152968793251098624,gatewaypundit,Sun Jul 21 15:49:16 +0000 2019,No Wonder Google Execs Cried When Hillary Lost - They Funded Crowdstrike - The 'Experts' Behind the Russian Hackers Story @JoeHoft https:t.coKCgJHOCq5V via @gatewaypundit,Organization,Organization,Organization
1152677054715846656,SaraCarterDC,Sat Jul 20 20:30:00 +0000 2019,".@Google filed 16,842 applications for #H1Bvisa & 5,825 labor certifications for green card from fiscal year 2016 to 2018. Google was ranked 10th among all visa corp sponsors. || 16.8K #JOBS || What about young Americans? || *RETWEET WITH COMMENT* https:t.coSLyZsuAJqv",Organization,Organization,Organization
1152844610118529024,CoinMarketCap,Sun Jul 21 07:35:48 +0000 2019,How does one advertise on CoinMarketCap?  Simply fill out this form: https:t.coicAibJGpaj https:t.cogEOhDmJQXD,Organization,Organization,Organization
1153260922284023809,akidearest,Mon Jul 22 11:10:05 +0000 2019,"Really dont appreciate this company just made an ad that stole my video and made it look like I was using their app when I was really using google translate. To top it off, they censored my face. Will try to work with @YTCreators to take this off... https:t.co2z1dpCUYDC",Organization,Organization,Organization
1152926983627497478,PamelaGeller,Sun Jul 21 13:03:07 +0000 2019,Google to pay multimillion-dollar fine for targeting children on YouTube and illegally collecting their data following FTC investigation: Google is evil. https:t.coIQN4gH7cFt https:t.coy5pF3AaCTh,Organization,Organization,Organization
1152738176701648896,Google,Sun Jul 21 00:32:52 +0000 2019,"Out of this world.  Catch up on all our #Apollo50th celebrations across Google, including a #GoogleDoodle, the Apollo 11 module in AR, new content in @googlearts and @googleearth, and more.  https:t.co0yexjWwRpq","Event, Organization",Organization,Organization
1153126369888366592,jonfavs,Mon Jul 22 02:15:25 +0000 2019,Josh Hawley campaigned against a minimum wage increase and in support of a tax cut for foreign banks: https:t.co50PHeF3scN https:t.cogBfadqJINh,Person,Person,Person
1153057502784831488,lucyallan,Sun Jul 21 21:41:46 +0000 2019,"A new PM appoints a new team. Talk of resignations is artificial in this context. I am looking forward to a talented, vibrant, energetic new team to take us out of EU by 31st Oct and take the country forward. https:t.coNuqacJdOja",Organization,Organization,Organization
1153170925384159232,thinkmusicindia,Mon Jul 22 05:12:28 +0000 2019,#3YearsOfKabali Celebrate #Thalaivarism With this Vertical Video of  #Thalaivar #Superstar @rajinikanth from #NeruppuDa  Music Video feat @neruppudajhanu   Download this video here  https:t.cocuTACItgMg  @Music_Santhosh @beemji @radhika_apte @theVcreations https:t.copXb2Dl5mgO,MusicAlbum,MusicAlbum,Music
1153012824656023552,jonworth,Sun Jul 21 18:44:13 +0000 2019,"Also on all this Edginton  Darroch stuff, cant Oakeshott and co even do a cover up properly?  Its so amateurish that a simple Google search for Steve Edginton shows hes a TPA  Brexit Party lackey and not a journalist.  But I suppose the Daily Mail swallowed it all...",Organization,Organization,Organization
1152969728341753857,JoyceWhiteVance,Sun Jul 21 15:52:59 +0000 2019,"Yall, a kind friend pointed out my goofy sense of humor doesnt always translate onto Twitter. I know most of you get the irony by now. It will be interesting to see Foxs coverage in light of Trumps statement he wont be watching the hearing. https:t.cojP1y2GoW3S",Organization,Organization,Organization
1152709463297712128,traceyram,Sat Jul 20 22:38:47 +0000 2019,My blood is boiling over the callousness of this man-  As a mother I watched babies in Attawapiskat 3 days ago covered in sores listening to the pleas of mothers & grannies for their children   And he wants them to be patient??  This is not reconciliation https:t.cotbekwkKnpI,Organization,Organization,Organization
1153237562472800256,weareoneEXO,Mon Jul 22 09:37:15 +0000 2019,EXO-SC & The 1st Mini Album ['What a life']  iTunes: https:t.coI5FWMbQKhc Apple Music: https:t.coN560fF8ofz Spotify: https:t.coaU0CN1mGQR  # # #SEHUN #CHANYEOL #SEHUN_CHANYEOL #EXO_SC #Whatalife # #EXO #weareoneEXO #_Whatalife,"MusicAlbum, MusicGroup",MusicAlbum,Music
1152639338926075904,NBA2K,Sat Jul 20 18:00:08 +0000 2019,"The 2K20 Soundtrack is LIVE   For the first time ever, we'll be adding more tracks throughout the #NBA2K20 season. Stay tuned...    https:t.coBuXRbLhthG https:t.coVcPBpMT8a3","MusicAlbum, VideoGame",MusicAlbum,Music
1153092291105419264,Spotify,Mon Jul 22 00:00:00 +0000 2019,Its a story we write down as we live. Hear all of @day6official's new stories on their latest mini album The Book of Us: Gravity https:t.coDRWnv2ln3E  #DAY6 #DAY6_BEHIND #The_Book_of_Us #Gravity https:t.coqssJh50VEe,MusicAlbum,MusicAlbum,Music
1152707321774116864,PaulMcCartney,Sat Jul 20 22:30:16 +0000 2019,I say you're greedy because you scheme  You say I'm foolish because I dream Listen to 'The Light Comes From Within' from Linda McCartney's 'Wide Prairie' @Spotify https:t.coAgQW6q0qyK https:t.couaOVFt2cEK,MusicRecording,MusicRecording,Music
1152933022326390787,dissectpodcast,Sun Jul 21 13:27:07 +0000 2019,"Today marks the 2 year anniversary of @tylerthecreators Flower Boy.  Whats your favorite moment of this beautiful, incredibly well-crafted album?  Binge all 14 episodes of our Flower Boy analysis now on @Spotify. https:t.cocqIxdV1ZB3 https:t.copbm70CasPo",MusicAlbum,MusicAlbum,Music
1153141867699216385,euphoriaHBO,Mon Jul 22 03:17:00 +0000 2019,hear #EUPHORIA listen to music from tonight's episode.  @Spotify: https:t.coLkKhvJdx5u @AppleMusic: https:t.co9aO99bxRdC https:t.cowzYi6r2t1X,"MusicAlbum, TVSeries",MusicAlbum,Music
1152939323047780353,LittleMix,Sun Jul 21 13:52:09 +0000 2019,The #SundayVibes playlist has just been updated! What else should we add? https:t.coxAcIivU630 https:t.cor107ZacVv9,"MusicAlbum, TVSeries",MusicAlbum,Music
1153050639615664128,IAMSU,Sun Jul 21 21:14:29 +0000 2019,Its Always Pure Love (Deluxe) Out Now! 5 New Songs! #hbkgang    Spotify: https:t.coOoHlAxLI4W   Apple Music: https:t.coRnrY0CJDwW https:t.co6k1KScRJSw,MusicAlbum,MusicAlbum,Music
1152961112666546177,BlackSabbath,Sun Jul 21 15:18:44 +0000 2019,"Released: July 21, 1971 https:t.coC05ujzYCFH",MusicRecording,MusicRecording,Music
1152752210507419649,konjak,Sun Jul 21 01:28:38 +0000 2019,"Did you know? #Iconoclasts is on sale on #NintendoSwitch right now! If you haven't checked it out, please do!    https:t.cozyHVYE4jKQ  Did you know something else? The game's music is on Spotify!!  Part 1: https:t.coK4gWebWofE Part 2: https:t.coQHDVeNtRoe https:t.cook6PyKyiy7","VideoGame, MusicAlbum",MusicAlbum,Music
1152558844104589312,Louis_Tomlinson,Sat Jul 20 12:40:16 +0000 2019,Well done to my mate Calvin for this tune! Go and have a listen! https:t.coOCBxWqaK7m,"MusicRecording, Person",Person,Person
1153027708567216128,TeamBandL,Sun Jul 21 19:43:22 +0000 2019,"accessing music on the internet has gone thru some phases:  2000 - napster, kazaa, and limewire 2003 - itunes and myspace 2004 - beatport 2005 - pandora 2006 - youtube 2007 - soundcloud 2008 - bandcamp 2011 - spotify 2014 - apple music 2015 - tidal 2019 - tik tok",Organization,Organization,Organization
1153228645164621824,GeorgeMOfficial,Mon Jul 22 09:01:49 +0000 2019,Each day this week we will uploading a different @Spotify Canvas video to celebrate 35 years of Careless Whisper.   To watch the videos listen each day to the track on Spotify on your mobile here: https:t.coV2voV2ZUIT https:t.co1i33JScVHF,MusicAlbum,MusicAlbum,Music
1153288836513853441,FinalFantasy,Mon Jul 22 13:01:00 +0000 2019,Feeling more blue than a black mage's robe?    Let's change that with a Spotify playlist of happy songs from the #finalfantasy series to cheer you up!    https:t.conwymlw5E5d  https:t.cowidN7SemtJ,"MusicAlbum, VideoGame",MusicAlbum,Music
1152882734345400320,WIRED,Sun Jul 21 10:07:18 +0000 2019,Amazon is developing a massive online multiplayer 'Lord of the Rings' game that will reportedly be free to play and available for PC and consoles https:t.codLIueE5KoL,"Organization, VideoGame",VideoGame,VideoGame
1151843808256172034,BleacherReport,Thu Jul 18 13:18:58 +0000 2019,"On this day in 2002, Kobe pulled up at Rucker Park fresh off a three-peat.  Mamba balled and was dubbed Lord of the Rings, but the second half got rained out.  Vintage  https:t.coDo8ivhN5lk","Event, Place",Event,Event
1153231846286774272,DinaPugliese,Mon Jul 22 09:14:32 +0000 2019,Wishing you an amazing week friends. From the land of olive trees and fresh cheese. I swear we walked into something out of the Lord of the Rings.... #Puglia #ItaliaBella https:t.coosiVXjdkVF,"Place, Movie",Place,Place
1150036251883528192,RobGMacfarlane,Sat Jul 13 13:36:23 +0000 2019,This week Ive begun what I guess will be the multi-year project of reading Lord Of The Rings aloud to my 6yo (his idea). Its got me wondering abt reading aloud; its powers & legacies. What books do you remember having read aloud to you as a child; what traces did they leave? https:t.coAITlQkk5xM,BookSeries,BookSeries,Book
1153213089531211782,IndieWire,Mon Jul 22 08:00:00 +0000 2019,#ItChapter2: Bill Hader Says the Sequel Is an Epic Horror Film Akin to Lord of the Rings https:t.coiB3bjBgZin https:t.cogh2oZ0lavi,MovieSeries,MovieSeries,Movie
1153233469310459904,DinaPugliese,Mon Jul 22 09:20:59 +0000 2019,Straight out of Lord of the Rings I tells ya. The walking trees. #ILoveOliveEm #Puglia #ItaliaBella   https:t.cow3NQuUlP5W,"Place, MovieSeries",Place,Place
1151786314909540352,N_T_S,Thu Jul 18 09:30:31 +0000 2019,"Scottish star of Lord of the Rings @BillyBoydActor is the latest celebrity to offer their support to the Trust. See his first visit to Culzean Castle, Ayrshire, and discover the top 5 things he loves most about it  https:t.coghQJh30T6v  #ForTheLoveOfScotland #LoveCulzean https:t.coeZts1P3Yzs","Person, MovieSeries",Person,Person
1150158211783303169,verge,Sat Jul 13 21:41:01 +0000 2019,Amazon is developing a Lord of the Rings MMO https:t.co649UArctyQ https:t.coL75NjNHdgc,"Organization, VideoGame",VideoGame,VideoGame
1150057796013944833,RTUKnews,Sat Jul 13 15:02:00 +0000 2019,.@amazon has reportedly decided to shoot its Lord of the Rings reboot in New Zealand DESPITE considering Scotland as a location.  Wonder why?  https:t.couqXGfUSchp,"Organization, MovieSeries",TVSeries,TVSeries
1150397327833804801,GameSpot,Sun Jul 14 13:31:10 +0000 2019,A new Lord of the Rings MMO is on the way https:t.cokPEivBkXnv https:t.coRmfDSDmvDf,VideoGame,VideoGame,VideoGame
1152774362040328199,NASA,Sun Jul 21 02:56:40 +0000 2019,"Neil Armstrong: That's one small step for a man; one giant leap for mankind.  As these words were spoken 50 years ago now, history was made. From then on, we lived in a world where humans had set foot on the Moon. Celebrate the #Apollo50th anniversary: https:t.colJl5u6PLVM https:t.cocJ2TzGfOre","Person, Event",Event,Event
1152769860763566086,NASA,Sun Jul 21 02:38:46 +0000 2019,"Thats one small step for a man, one giant leap for mankind.  LIVE NOW: Watch NASA TV for the original replay, as the world experienced it, of Neil Armstrongs first steps on the surface of the Moon:  https:t.coGep64B6ru4","Person, GovermentOrganization, Event",Event,Event
1153037681514991616,neiltyson,Sun Jul 21 20:23:00 +0000 2019,"Dear @NASA,  [An Open Letter: 900 words]  https:t.couHNDHiAkuC https:t.co7iZsGaMdLG",Organization,Organization,Organization
1153000642308386816,NASA,Sun Jul 21 17:55:49 +0000 2019,"50 years ago now, two humans lifted off the lunar surface. As we continue to celebrate the #Apollo50th anniversary, we relive the past with an eye on the future. We're returning humans to the Moon within 5 years to lay the path to Mars. We Are Going: https:t.coljiY7snryT https:t.coBTbPM0FfJC",Event,Event,Event
1152808685980307457,NASA,Sun Jul 21 05:13:03 +0000 2019,"As the #Apollo50th Moonwalk celebration wraps, see how your everyday life has been affected by the tech developed for Apollo. Whether you watched one small step firsthand or heard of it from someone close to you, see how Apollo is still in your life: https:t.coFTpNLA7n6G https:t.cohu3POGBOZ7",Event,Event,Event
1152748290745651200,NASA,Sun Jul 21 01:13:04 +0000 2019,"Greetings Earthlings!  Three space travelers opened the hatch to their new home on @Space_Station at 9:04pm ET. Read how @AstroDrewMorgan, @astro_luca & cosmonaut Alexander Skvortsov were welcomed by their space-faring crew mates & whats next for them: https:t.coFRrjhIw77o https:t.cofYd38etZwz",Organization,Person,Person
1152761259667992581,NASA,Sun Jul 21 02:04:36 +0000 2019,"The Eagle touched down, but that was just the first #Apollo50th milestone.  Watch NASA TV starting at 10:38pm ET for our replay of the original live broadcast of Neil Armstrongs first steps on the Moon: https:t.cof1K1MFXFRn https:t.coHiyZYRow8Q","Event, Person",Event,Event
1152669692030521344,NASA,Sat Jul 20 20:00:44 +0000 2019,"Eagle, Houston. You are Go for landing. Over.   LIVE NOW: Watch special coverage of the original live broadcast of the Apollo 11 #MoonLanding. Hear those familiar voices, feel the anticipation and experience the #Apollo50th with us:  https:t.coF7Po1RxVfS","Event, Organization, Place",Event,Event
1152974382643339265,NASASolarSystem,Sun Jul 21 16:11:28 +0000 2019,"Our Moon was just the beginning. Since Apollo, our spacecraft, telescopes & scientists have explored dozens of other moons. They're weird. They're wonderful. They have:    oceans  geysers  volcanoes  mysteries   Meet the moons: https:t.coRIk6iIT5AH   #Apollo50th https:t.corRm8aSwD3y",Event,Event,Event
1153024849914277888,NASA,Sun Jul 21 19:32:01 +0000 2019,"Named for the mythological Greek Moon goddess and twin of Apollo, #Artemis will carry humanity back to the Moon  this time, for good  before we launch to Mars and to the unexplored beyond. Get the latest updates and more, straight to your inbox: https:t.coBDPRQgOxvv https:t.coqBDPC03aKF","Place, Event",Event,Event
1153298524383141890,NASA,Mon Jul 22 13:39:30 +0000 2019,"Congrats to @ISRO on the launch of Chandrayaan 2, a mission to study the Moon. We're proud to support your mission comms using our Deep Space Network and look forward to what you learn about the lunar South pole where we will send astronauts on our #Artemis mission in a few years https:t.codOcWBX3kOE","Person, Event, GovermentOrganization",GovernmentOrganization,Organization
1152956650371858437,NASA,Sun Jul 21 15:01:01 +0000 2019,"Here am I floating 'round my tin can  Far above the moon.  Its been 50 years since @DavidBowieReal released his breakthrough single, Space Oddity, and since our first lunar landing. Celebrate #Apollo50th and enjoy a refreshed version of #SpaceOddity50: https:t.coFSS9JKjxcj https:t.cobK8zl6xEm7","Event, MusicAlbum, Person",MusicAlbum,Music
1152983555498303489,NASA,Sun Jul 21 16:47:55 +0000 2019,"Our #Apollo50th anniversary of the Moon landing is being celebrated in a different kind of way on the @Space_Station: By welcoming 3 new crew members on board, including @AstroDrewMorgan. All this & more on this episode of #SpacetoGround: https:t.co2NSY2uxGAb https:t.cooPUzYihrqE","Event, Person",Person,Person
1152780238256050181,NASAMoon,Sun Jul 21 03:20:01 +0000 2019,"During the roughly 3 hours that the #Apollo11 astronauts spent walking on the Moon, they set up instruments including seismometers & a device to characterize solar wind. These were the first of many science instruments that astronauts deployed on the Moon. https:t.coZDpGsE0BZM https:t.co1yEyv7jayF","Event, Place",Event,Event
1152753120369188865,Space_Station,Sun Jul 21 01:32:15 +0000 2019,".@AstroDrewMorgan, @Astro_Luca and Alexander Skvortsov began their mission aboard the station Saturday when the hatches opened at 9:04pm ET. They join fellow Exp 60 crewmates @Astro_Christina, @AstroHague and Alexey Ovchinin. #Apollo50th | https:t.co5LaMOYLUkd https:t.coLeCL7ac52D","Person, Event",Person,Person
1153031896051453952,ForbesCrypto,Sun Jul 21 20:00:00 +0000 2019,Oracle is using blockchain technology to understand the decline in global honeybee populations: https:t.coWhj3fJ5JHl by @Rachelwolf00 https:t.coBBXACWCk7Z,Organization,Organization,Organization
1153033414267637760,SFGiants,Sun Jul 21 20:06:02 +0000 2019,Taking the mound for the first time at Oracle Park: @cmenez_13 https:t.cobqMj0GJF3F,Place,Place,Place
1153025751710486528,AnthonyDiComo,Sun Jul 21 19:35:36 +0000 2019,"Eighty-four-year-old Felipe Alou, the father of Mets quality control coach Luis Rojas and former Mets outfielder Moises Alou, is at Oracle Park today. The elder Alou is a three-time All-Star, and the 1994 National League Manager of the Year.","SportsTeam, Person, Organization",Person,Person
1152646187293368321,hankschulman,Sat Jul 20 18:27:20 +0000 2019,"Menez just walked onto the field at Oracle for the first time, with Anderson, to join other pitchers playing catch. I always try to imagine what that feels like. #sfgiants","EducationalOrganization, Person",Person,Person
1153088338905071616,baseballmarty,Sun Jul 21 23:44:17 +0000 2019,Post game coming up from 21st Amendment on Second Street near the ball park...magic happening at Oracle..Just win series...keeps the pressure on Farhan to add as well as shake things up..how about Yaz? @Adamcopes @carmenkiew @ThereseVinal all here for the post game..many guests..,"Place, Organization",Place,Place
1153045218733649920,timbhealey,Sun Jul 21 20:52:57 +0000 2019,"After Pete Alonso struck out swinging to end the top of the third, he snapped his bat over his knee like a twig. That impressed the Oracle Park crowd.  Mets 2, Giants 1, bottom 3","Place, Person",Person,Person
1152630707216216064,SteveGelbs,Sat Jul 20 17:25:50 +0000 2019,.@WayneRandazzo and I took a cab to Oracle Park together. I just got the receipt. https:t.coDiFflk44Ha,Place,Place,Place
1153192984411684864,Oracle_India,Mon Jul 22 06:40:07 +0000 2019,With Autonomous you can dig deeper and discover hidden patterns to make better business decisions. Connect with us now. LETSTALK_IN@oracle.com  #LetsGoAutonomous #LetsTalk https:t.coYTJAYTa321,Organization,Organization,Organization
1153293851098062848,MyPowertalk,Mon Jul 22 13:20:55 +0000 2019,Truth is never complicated or irrational; it always feels easy and right.  My book #KnowTheTruth has one purpose: to help you know who YOU are.  Read it from cover to cover or use it as an oracle.  #Love #MondayMotivation  @HayHouseUK  Get it here: https:t.cooTwoYAN778 https:t.coUCscl2TO1U,Book,Book,Book
1152059459272945664,jonmorosi,Fri Jul 19 03:35:53 +0000 2019,"Watching Madison Bumgarner step to the plate in the 7th inning on the #SFGiants broadcast, sure seemed like there was a little extra emotion from the Oracle crowd. This is the drama of the final days before the trade deadline . . . @MLB @MLBNetwork","SportsTeam, Person",SportsTeam,Sports
1150812010147397632,ValaAfshar,Mon Jul 15 16:58:58 +0000 2019,U.S. technology companies founded by 1st and 2nd generation immigrants:   Apple Google Amazon Facebook Oracle IBM Intel Uber Airbnb Yahoo EMC eBay SpaceX VMWare AT&T Tesla NVIDIA Qualcomm Paypal ADP Reddit Slack WeWork Stripe Cognizant Intuit Zoom 3M,Organization,Organization,Organization
1152181132437250048,Oracle_India,Fri Jul 19 11:39:23 +0000 2019,Oracle Autonomous Database helps businesses improve their profit while tackling alarming shortcomings by providing valuable insights. Watch the video to know how #LetsGoAutonomous https:t.coGYXcFNMWsK,"Organization, Event",Organization,Organization
1151665466135515137,Crunchyroll,Thu Jul 18 01:30:18 +0000 2019,NEWS: Phantasy Star Online 2: Episode Oracle TV Anime Dives Deep in October   More: https:t.coFxSyiIlAoJ https:t.co9C56Mv7yjf,TVSeries,TVSeries,TVSeries
1151286652675006466,USCERT_gov,Wed Jul 17 00:25:02 +0000 2019,Oracle has 319 reasons for you to check out their July 2019 Critical Patch Update. Read more at https:t.coDn36IchmSJ. #Cyber #Cybersecurity #InfoSec,Organization,Organization,Organization
1151899676427186176,diljitdosanjh,Thu Jul 18 17:00:58 +0000 2019,ROAR TOUR USA  2019   7 September -  Oracle Arena OAKLAND California   14 SEPTEMBER - NEW YORK - NASSA COLISEUM   21 SEPTEMBER - HOUSTON - NRG ARENA   HEAVYWEIGHT BHANGRA SAARI RAAT    P.S - https:t.cowaRSXIQIwt  https:t.coCsvgreFvFq,Place,Place,Place
1153105443687784448,day9tv,Mon Jul 22 00:52:16 +0000 2019,I've known Geoff for almost 20 years.  We played Brood War in high school & college and did years of SC2BW events together.  Geoff was a one-of-a-kind person.  I'll miss you man.  I'm so sad. https:t.coRcv6qb1sEs,Event,Event,Event
1152972250296901633,nowthisnews,Sun Jul 21 16:03:00 +0000 2019,Obama surprised a group of recent high school grads at his foundation's Chicago office  and their reactions are priceless https:t.co60mPD4gnPn,Person,Person,Person
1152737742218022912,NPR,Sun Jul 21 00:31:09 +0000 2019,"Rebuilding Notre Dame means new demand for experts with the same skills required to build the Paris cathedral 900 years ago.   In a nearby high school, young stone carvers are training for that task. https:t.co3ah0mzcRgd",Place,Place,Place
1152667575710617600,BetoORourke,Sat Jul 20 19:52:20 +0000 2019,"Thanks for reaching out, Bill. Just like every parent can send their kid to a public school, under our plan, every American who wants to enroll in Medicare can do so. Its the best way to guarantee high-quality health care for every single American. https:t.cobErMVIsd5k","GovernmentOrganization, EducationalOrganization, Place",GovernmentOrganization,Organization
1153131372497608705,samsanders,Mon Jul 22 02:35:18 +0000 2019,"The thing about all these shows about kids being crazy in high school (Euphoria, talking abt you) is that they constantly remind me that I NEVER got invited to any of those wild house parties when I was in high school.",EducationalOrganization,EducationalOrganization,Organization
1152922680238194688,dallasnews,Sun Jul 21 12:46:01 +0000 2019,The Thomas Jefferson High School boys soccer team is entirely Hispanic and many players are immigrants going through the process of legal citizenship.    Here's what life is like for them.    #TheTimeWeHaveHere  https:t.co9xMSzwwpvd https:t.coMBGiAiClz7,EducationalOrganization,EducationalOrganization,Organization
1152926933602263040,ameliaknisely,Sun Jul 21 13:02:55 +0000 2019,"A thread: There are 10,522 homeless students in West Virginia, a number so large it could fill the states largest high school more than five times.  Theyre sleeping in cars, hotels, shelters and staying with friends. @wvgazettemail https:t.co4E6EOuMYZY",Place,Place,Place
1153061376782405632,ZeroBlog30,Sun Jul 21 21:57:09 +0000 2019,Thought this was a barracks for the first couple seconds.   Send a recruiter to this high school ASAP https:t.co5bLPHNPavL,EducationalOrganization,EducationalOrganization,Organization
1152750269400096768,PoliticsWolf,Sun Jul 21 01:20:55 +0000 2019,"No, its because we advanced past the high school simplification of civics & realize it came about as a compromise with slave states & that its toxic institution plaguing democracy. Seeing this nonsense from a Republican who authored The Death of Expertise is too on the nose https:t.co2cQ1pyWhT4",EducationalOrganization,EducationalOrganization,Organization
1152640031313604609,Yankees,Sat Jul 20 18:02:53 +0000 2019,"Austin Romine, the pride of El Toro High School, is making things happen today. https:t.co6lkB34gxhx","Place, EducationalOrganization, Event, Person",Person,Person
1152901000677609472,anandmahindra,Sun Jul 21 11:19:53 +0000 2019,I havent been to Hampi since I was in high school. Have always wanted to return. I now have a very good reason to do so..: https:t.co3Gfjp96oU4,Place,Place,Place
1152986773078695939,mcbyrne,Sun Jul 21 17:00:42 +0000 2019,This is disgusting. Hmm. Way back when I was in high school Bernie voted against all the moderate dems to protect abortion rights. Lets be clearshe is exploiting feminism to defend her class interests. She doesnt care about women. She cares about her economic class. https:t.colLxfDShdbT,"GovermentOrganization, Organization",GovernmentOrganization,Organization
1152867294248230912,Imamofpeace,Sun Jul 21 09:05:56 +0000 2019,"Not trending or dominating the headlines: Kabul University hit by deadly bomb blast. 8 killed, 33 injured.  Is trending and dominating the headlines: Transgender lady is heartbroken and takes legal action against Salons for refusing to wax her male genitals.  Thanks.","Organization, Place",Event,Event
1152670263600918531,NPR,Sat Jul 20 20:03:01 +0000 2019,"The University of Texas-Austin says it will be offering full tuition scholarships to in-state undergrads whose families make $65,000 or less per year.   The program is slated to begin in the fall of 2020. https:t.coOW8R9SJVFy","EducationalOrganization, Organization, Place",EducationalOrganization,Organization
1153132798431125505,vivekagnihotri,Mon Jul 22 02:40:57 +0000 2019,"When I found in 2010 that students are recruited by #UrbanNaxals in our campuses to work as soldiers of Indias enemies, all liberals came after my life to discredit me.   Why were they defending Indias enemies?   Here is one more proof. https:t.co1LFFFSrBRE",Organization,Event,Event
1153017780943446016,WPLGLocal10,Sun Jul 21 19:03:55 +0000 2019,Florida International University mourns football player killed in car crash https:t.coOgpWnKs1Kk https:t.coMs7W6AS5KS,Place,Event,Event
1152903822194466816,CNN,Sun Jul 21 11:31:05 +0000 2019,"These senior citizens are traveling the world, without even leaving their seat.  A team at the University of Tokyo is helping Japan's elderly travel through virtual reality, taking them everywhere from Venice to San Francisco. https:t.co1PB6o8RVRq https:t.cooED2VryQDo","Place, EducationalOrganization",EducationalOrganization,Organization
1153004682245283842,citizentvkenya,Sun Jul 21 18:11:52 +0000 2019,Kelvins story is that of a student who worked hard right from primary school through secondary school up to the University. A closer look at his certificates tells it all   #FirstClassBetrayal #SundayLive @KoinangeJeff https:t.cow2x1f9jQdT,"EducationalOrganization, Person",EducationalOrganization,Organization
1152942170405363712,abc13houston,Sun Jul 21 14:03:28 +0000 2019,#BREAKING Texas Southern University to host 3rd Democratic presidential debate at Houston campus https:t.cod0nclPTFRz,"EducationalOrganization, GovermentOrganization, Organization, Place",Event,Event
1153008055916859392,HowardU,Sun Jul 21 18:25:17 +0000 2019,Howard University is always the answer.  https:t.co7igpqFcj9d,EducationalOrganization,EducationalOrganization,Organization
1152941583987367936,royalsociety,Sun Jul 21 14:01:08 +0000 2019,The Royal Societys University Research Fellowship is now open for applications. Were looking to support outstanding early-career scientists who have the potential to become leaders in their field. Apply today https:t.co7XYQQiQ0KH #RSGrants https:t.cog7pIWdj2wv,EducationalOrganization,EducationalOrganization,Organization
1153025380518727680,PamelaGeller,Sun Jul 21 19:34:07 +0000 2019,"Colorado State University: Avoid using Americans, America: Because American is a non-inclusive word that should be avoided. The most inclusive country in the history of the world. The inevitable catastrophe of the left's war on reason and https:t.covLdKmeKgLF https:t.coQWCMhC73Bv","EducationalOrganization, Organization",EducationalOrganization,Organization
1152970705581039616,mitchellvii,Sun Jul 21 15:56:52 +0000 2019,"Trump has already forced the Left as far left as they will go and the right is fully in his camp.  2020 will rest in the hands of the middle. Given this, I believe he should adopt a more Reagan-like charm going forward, just as we saw in the SOTU and July 4th celebration.","Person, GovernmentOrganization",GovernmentOrganization,Organization
1153122490127831041,OfficialMwave,Mon Jul 22 02:00:00 +0000 2019,[#Mwave Calendar] 4th Week of July Helpful Mwave news you shouldnt miss this week!  #VERIVERY #HASUNGWOON #MCOUNTDOWN #KCONNY https:t.cocEh4pPXHvK,"Event, MusicGroup",Event,Event
1153030279138877445,mitchellvii,Sun Jul 21 19:53:35 +0000 2019,"Were I one of President Trump's election advisers, I would recommend full court press statesmanship and charm offensive between now and 11320. I'm talking SOTU and July 4th level statesmanship and charm.  Trump is a VERY charming guy.  It is the brusqueness that is the act.","Person, Event",Person,Person
1153034562936692736,mitchellvii,Sun Jul 21 20:10:36 +0000 2019,"He already has in his SOTU address and July 4th speech.  I am not suggesting anything new, just more of that. https:t.co6QarB4tmQl",Event,Event,Event
1152616032055562246,ZachZaidman,Sat Jul 20 16:27:31 +0000 2019,"Baseballs cathedral, Wrigley Field. Currently 90 with a heat index of 103. Wind blowing straight out at 20 mph. Cubs and Padres play game two. Cubs have won 8 of 10 since July 4th. @670TheScore broadcast time is 12:45 pm CT. The game starts at 1:20 pm CT. https:t.cotXcyZMZlEB","Event, SportsTeam, Organization",SportsTeam,Sports
1153198873541787648,rapplerdotcom,Mon Jul 22 07:03:31 +0000 2019,"Before President Duterte delivers his 4th SONA, militant groups in Baguio City march along the central district in protest of the current administration. Photos by MAU VICTARAPPLER  Get full #SONA2019 coverage at https:t.co8roeVY4rd6. https:t.coVHfUZTOXjU","Place, Person, Event",Event,Event
1153232305659531264,MPSIslington,Mon Jul 22 09:16:22 +0000 2019,"#GiveUpYourGun today  Between the 20th July - 4th August you will be able to hand in firearms and ammunition to your local police station, anonymously.  Find out more information on the #GunSurrender here:   https:t.cozVW7ZWJtgl https:t.coF8si0khKCc",Event,Event,Event
1150465147510624256,CREWcrew,Sun Jul 14 18:00:40 +0000 2019,"Trumps 4th of July celebration bankrupted the DC security fund.  It had the opposite effect for his local hotel, where rates skyrocketed around the holiday.  https:t.cou9ZRNYP39K","Place, Event, Person",Person,Person
1153247812357906432,DiscoverCoast,Mon Jul 22 10:17:59 +0000 2019,"Make sure you stop by Scarborough Town Centre next week as the International Market is back!!!  With a wide range of stalls including food, crafts, flowers and more - you don't want to miss it.  Market dates: 29th July - 4th of August https:t.coT3elm6QgHg","Place, Event",Place,Place
1150034701236785152,CREWcrew,Sat Jul 13 13:30:14 +0000 2019,How much did Trumps Fourth of July spectacle cost? $1.2 million from the Pentagon  $1.7 million from the city of DC $2.5 million from the Park Service ...and counting. https:t.coxRqbyERcqU,"Place, GovernmentOrganization",GovernmentOrganization,Organization
1150517868439711745,CREWcrew,Sun Jul 14 21:30:10 +0000 2019,CREW filed FOIA requests with multiple federal agencies and branches of the military in an attempt to establish the cost of Trumps July 4th event and whether there were any communications between the admin or military and the RNC or Trump campaign https:t.co8SU1M5WUN6,"Event, Person, Place",Event,Event
1151123290494291976,TomFitton,Tue Jul 16 13:35:53 +0000 2019,"Pic with Earl Morse, the founder of Honor Flights and Gene Kranz, the famous NASA flight Director for Apollo 11.  Honored to meet these heroes at @RealDonaldTrump Salute to America on July 4th.  #Apollo50 https:t.coQXSyoDmdDR",Event,Event,Event
1152897668122906625,FeministaJones,Sun Jul 21 11:06:38 +0000 2019,Food conglomerates like McDonald's and Burger King will have to drastically cut their beef production might actually be more helpful. https:t.covGEi7db8KZ,Organization,Organization,Organization
1153247454629961728,BBCNews,Mon Jul 22 10:16:34 +0000 2019,I like to eat at McDonald's and Burger King sometimes but I don't like the toys - they're really bad for the environment  https:t.coyrSjKXj9tK,"Person, Organization",Organization,Organization
1153059612804952064,DaniNierenberg,Sun Jul 21 21:50:09 +0000 2019,"We like to go to eat at Burger King and McDonalds, but children only play with the plastic toys they give us for a few minutes before they get thrown away and harm animals and pollute the sea, the two wrote. https:t.cobboAHmknXk",Organization,Organization,Organization
1153088956558434305,Argus911,Sun Jul 21 23:46:45 +0000 2019,"Danny Closs, 51, was last seen at Burger King near Best Buy on W. 41st Street and S. Sheldon Lane at 4 p.m. on July 20. https:t.coUFGAn6et8I","Person, Event, Organization",Person,Person
1150341041058459648,DailyMailUK,Sun Jul 14 09:47:31 +0000 2019,Burger King's new 'meat-free' halloumi burger is cooked in the same fryer as its chicken and fish https:t.coIBfO0epBLg,Organization,Organization,Organization
1150779785464991744,megancgraham,Mon Jul 15 14:50:55 +0000 2019,Burger King Sweden stunt: Customers order the 5050 menu and the restaurant will randomly select either a plant-based or regular meat patty. Customers can guess which one they received. Result of the guesses will be put in ads in August. https:t.co0HrEZOuR6c,"Event, Organization",Event,Event
1150337510092025856,CBSNews,Sun Jul 14 09:33:29 +0000 2019,Customer tells Burger King manager to go back to Mexico for speaking Spanish to worker https:t.coGRBLzeKrld https:t.coEBKx5JMOJZ,"Place, Organization",Place,Place
1150378311714930688,MothershipSG,Sun Jul 14 12:15:37 +0000 2019,"Durian burger with deep fried durian, cheese & butter patty available for S$8.60 in Penang https:t.coS40d5XI9hq https:t.coPI8Rkl81hw","Place, Organization",Place,Place
1150154257309605889,FaZeJev,Sat Jul 13 21:25:18 +0000 2019,BURGER KING TACOS https:t.cotQd91NXeCT via @YouTube,Organization,Organization,Organization
1150838075712577538,TheNorthStar,Mon Jul 15 18:42:33 +0000 2019,"ICYMI: Burger King Customers Tell Spanish-Speaking Manager to 'Go Back to Mexico' in Viral Video   Guess what, maam? Im not Mexican, the manager told the customers. Youre being prejudiced & I want you out of my restaurant right now. @_mariaeperez   https:t.coUDcI45ywMQ https:t.coEcdocTO5yX",Organization,Organization,Organization
1150411711398199297,ladbible,Sun Jul 14 14:28:20 +0000 2019,"385,000 people sign petition asking McDonald's and Burger King to stop giving away plastic toys. https:t.coLITCd8iad8 https:t.copCqXRm4Mor",Organization,Organization,Organization
1152739542044225541,BetoORourke,Sun Jul 21 00:38:18 +0000 2019,"Seven years after Aurora, we haven't done enough to end gun violence in our schools, our communities, or our country. I'm committed to making this a top priority -- finally achieving universal background checks, stopping the sale of weapons of war, and implementing red flag laws.","Organization, Event",Organization,Organization
1152949425796460544,MailOnline,Sun Jul 21 14:32:18 +0000 2019,Taiwanese flag goes missing from Maverick's jacket in new Top Gun movie that has Chinese co-producers https:t.coLWc27PpH6o,Movie,Movie,Movie
1153217873176858624,CNN,Mon Jul 22 08:19:01 +0000 2019,Why was the Taiwan flag removed from Tom Cruise's 'Top Gun' jacket? https:t.coquEO1aooqu,Movie,Movie,Movie
1152932743124312070,verge,Sun Jul 21 13:26:01 +0000 2019,The first trailer for Top Gun: Maverick is a flashback to 1986 https:t.coAr4Gvjd74f https:t.coPWfZLeayAR,Movie,Movie,Movie
1152745049282830337,TMZ,Sun Jul 21 01:00:11 +0000 2019,Top Gun trailer: Tom Cruise still feels the need for speed over 30 years after original (via @toofab) https:t.coBAu5Z6gQaL,"Movie, Person",Person,Person
1152241649893945346,markmackinnon,Fri Jul 19 15:39:51 +0000 2019,"Theres a new Top Gun movie coming out. And Maverick is wearing the same leather jacket - only this time its Communist Party of China-approved, so the Japanese and Taiwanese flag patches are gone (screenshot on right is from the new trailer)... https:t.cogUxFNFNUKX",Movie,Movie,Movie
1153185425135194112,CNNBusiness,Mon Jul 22 06:10:05 +0000 2019,A new trailer for the sequel of Top Gun is stirring up controversy after it shows Tom Cruise putting on that iconic bomber jacket  with two key changes https:t.coyeASAQ4hmB,"Movie, Person",Movie,Movie
1151934299270197248,LightsCameraPod,Thu Jul 18 19:18:33 +0000 2019,"First trailer for the Top Gun sequel, 'Top Gun: Maverick' starring Tom Cruise, Miles Teller, Val Kilmer, Jon Hamm and more. Thoughts? https:t.coBww0AfQrjT","Movie, Person",Movie,Movie
1151938273876611073,IGN,Thu Jul 18 19:34:21 +0000 2019,I feel the need... the need to watch the new Top Gun: Maverick trailer. #SDCC https:t.coiorKv5h2Rb,Movie,Movie,Movie
1151992707864121344,TomCruise,Thu Jul 18 23:10:39 +0000 2019,Thank you to all the fans who came out to Hall H today. It was great to share our first trailer for Top Gun: Maverick with you all. https:t.coakzi4AeC9Z,"Movie, Place",Movie,Movie
1153288955229589504,THR,Mon Jul 22 13:01:28 +0000 2019,'Top Gun: Maverick' Trailer Sparks Controversy as Fans Notice Taiwanese Flag Missing From Tom Cruise's Jacket https:t.cop4VoHDfuBw https:t.coLzxaO3Ng9o,Movie,Movie,Movie
1153229380639834113,ActorMadhavan,Mon Jul 22 09:04:44 +0000 2019,"With Gods Grace when #Chandrayaan2 reaches the Dark side of the moon, the BRIGHTEST side of Indian space explanation will commence. @ISRO ALL THE VERY BEST .. MAKE US SUPER PROUD YET AGAIN. ","Event, Place, GovermentOrganization",GovernmentOrganization,Organization
1153227223458963456,ActorMadhavan,Mon Jul 22 08:56:10 +0000 2019,@isro WITH Gods Grace .. when we reach the Dark side of the moon ..The BRIGHTEST Side if Indian Space exploration will begin. Wish you all the very very best for a Perfect launch and Deployment@ISRO.. MAKE US PROUD YET AGAIN.,"Organization, Event",GovernmentOrganization,Organization
1152986730846392321,airandspace,Sun Jul 21 17:00:32 +0000 2019,"While Michael Collins orbited the Moon alone in command module Columbia, he was out of contact with Mission Control for half of each orbit as he passed over the far side of the Moon: https:t.coPW38ZKksHc    Not since Adam has any human known such solitude. - Mission Control https:t.co1patVAhQYi","Organization, Person",Organization,Organization
1151846583299969025,neiltyson,Thu Jul 18 13:30:00 +0000 2019,"Regardless of what Pink Floyd ever told you, there is no Dark Side of the Moon  all sides receive sunlight. Lunar days last a month. But there is, however, a permanent Far Side & Near Side. https:t.cooRxPPrQx9W",MusicGroup,MusicGroup,Music
1153056430271946752,TheEconomist,Sun Jul 21 21:37:30 +0000 2019,For William Blake there was a dark side to our dream of landing on the Moon https:t.coYkgBcSN2qK From @1843mag,"Person, Event, Place",Person,Person
1152563808818401280,KikkomanKitchen,Sat Jul 20 13:00:00 +0000 2019,"Its #MoonDay, so well let you in on a little secret about the dark side of the moon https:t.coN4Yd82jUnE",Event,Event,Event
1153166546572910592,HoustonChron,Mon Jul 22 04:55:04 +0000 2019,"#Apollo11 #50YearsAgoNow  Dark side of the moon:  crew prepares to burn 10k lbs. of propellant to push spacecraft out of lunar orbit and back toward Earth. World waiting to see if burn went smoothly, and if explorers are safely heading home. https:t.coKNKQB4m1Dw","Place, Event",Event,Event
1152443113220296704,ThatEricAlper,Sat Jul 20 05:00:24 +0000 2019,"One day, the teenagers buying Pink Floyd's The Dark Side Of The Moon aren't going to have a clue to what the sounds of coins, bags of cash, and registers are at the beginning of Money.","MusicGroup, MusicAlbum, Event",MusicGroup,Music
1152375138555441152,ThatEricAlper,Sat Jul 20 00:30:17 +0000 2019,"Every time Pink Floyd's The Dark Side Of The Moon engineer Alan Parson would test the sound levels to record each interview heard throughout the album, he would say, Speak to me. The phrase stuck. That's Track 1, right there. https:t.coUAc7Uoaqq3","MusicGroup, MusicAlbum, Event",MusicAlbum,Music
1150648687057678337,SkyNews,Mon Jul 15 06:09:59 +0000 2019,From the CIA's involvement in the Apollo programme and much more - Sky News sheds light on the dark side of the moon landings https:t.coeFApcUjU3P,Event,Event,Event
1150315557096288256,htTweets,Sun Jul 14 08:06:15 +0000 2019,India holds bright spot as @isro eyes dark side of the Moon  https:t.coPMV71mdhXn  #Chandrayaan2 https:t.coy7nBKxiR9N,Organization,Organization,Organization
1150397282950377479,UltClassicRock,Sun Jul 14 13:31:00 +0000 2019,"An amazing @PinkFloyd run ended this month in 1988, but then another one began:  https:t.coxtSewM8zfE","Event, MusicGroup",MusicGroup,Music
1151411717089349633,MetalHammer,Wed Jul 17 08:42:00 +0000 2019,ACDC break social media silence to mark 40th anniversary of Highway To Hell: https:t.coMFYvLeElQz https:t.co8G1xtok0ky,MusicGroup,MusicGroup,Music
1151513900581642240,RollingStone,Wed Jul 17 15:28:02 +0000 2019,ACDC are celebrating the 40th anniversary of their landmark album 'Highway to Hell' by posting archival videos on their official Youtube channel https:t.coWO53DMVoQO https:t.co535GhmLH5C,"MusicGroup, MusicAlbum, Event",MusicGroup,Music
1151204623467892742,JamBase,Tue Jul 16 18:59:05 +0000 2019,New Multi-Cam Video: Watch #DaveMatthewsBand mash ACDC's Back In Black with the Bee Gees' Stayin' Alive at SPAC as well as the Fly Like An Eagle that followed https:t.coQF8rPq6cqx,"MusicGroup, Event, Place",Event,Event
1151777879828529152,MetalHammer,Thu Jul 18 08:57:00 +0000 2019,ACDC share rare Highway To Hell video that was filmed for Dutch TV in 1979: https:t.coyt7Zl8PK3F https:t.cowZUcPV0RB7,MusicGroup,MusicGroup,Music
1151140599275380736,PlanetRockRadio,Tue Jul 16 14:44:40 +0000 2019,ACDC return to celebrate Highway To Hell's 40th anniversary   https:t.coy9hnzlTfpg,"MusicGroup, MusicAlbum, Event",MusicGroup,Music
1150089168325922817,JamBase,Sat Jul 13 17:06:40 +0000 2019,It Happened Last Night: #DaveMatthewsBand busted out a lost classic after six years and mashed up ACDC's Black In Black & Stayin' Alive by the Bee Gees at SPAC. See how it went down https:t.col7VjayJ2N4,MusicGroup,MusicGroup,Music
1150937089980030976,UltClassicRock,Tue Jul 16 01:16:00 +0000 2019,ACDC Lineup Changes: A Complete Guide: https:t.co5xSPvoCBEh,"MusicGroup, Event",MusicGroup,Music
1153083798529220608,scrowder,Sun Jul 21 23:26:15 +0000 2019,"People at the New York Times have an absolute meltdown any time Trump calls them fake news, but then go and run this headline AFTER Erica Thomas admitted he didnt actually say this.  #HateHoax https:t.coIVdrCdlK5C","Person, Event",Event,Event
1153035883907637249,SportsCenter,Sun Jul 21 20:15:51 +0000 2019,Enter Sandman ... into the Hall of Fame.  Mariano Rivera:  13x All-Star 5x World Series champion 1x World Series MVP (1999) 652 career saves - MLB Record New York Yankees No. 42 retired https:t.coVyLgXlxMum,"SportTeams, Person",Person,Person
1153021405476401153,maggieNYT,Sun Jul 21 19:18:19 +0000 2019,"He Wasnt Seeking to Kill a Mob Boss. He Was Trying to Help Trump, His Lawyer Says. - The New York Times https:t.cofHWW6jMaIU","Event, Organization, Person",Event,Event
1153245802938155011,OpIndia_com,Mon Jul 22 10:10:00 +0000 2019,"As India successfully launches #Chandrayaan2, here is a gentle reminder to NYTimes: F*** you, again! #ASAT https:t.coe9qWSxwaZR","Organization, Event",Organization,Organization
1153287419241881600,VirgilvDijk,Mon Jul 22 12:55:22 +0000 2019,"What an iconic stadium to play in, Thank you Boston  See you soon New York!  https:t.coBgu7X9kkvN","Person, SportsTeam, Organization",Person,Person
1152785479802265600,MLBStats,Sun Jul 21 03:40:50 +0000 2019,.@Nationals starters have gone 27 straight starts without recording a loss.   Thats the longest streak since the 1916 New York Giants.    ht @StatsbySTATS https:t.co6Wo7oTI3KF,"SportsTeam, Organization",SportsTeam,Sports
1152729608221057024,byDavidGardner,Sat Jul 20 23:58:49 +0000 2019,"My buddy Lincoln found a perfectly wrapped In-N-Out burger...  On the streets of Queens, New York!  I AM FREAKING OUT https:t.coTZbGvLn9N0","Place, SportsTeam",Place,Place
1152918699055210497,nytimes,Sun Jul 21 12:30:12 +0000 2019,"Here's what the front page of The New York Times looked like 50 years ago today, the morning after the Apollo 11 moon landing. The headline Men Walk on Moon was set in some of the largest type ever used in The Times.  Read the story behind the story: https:t.co8PBLFiGzWO https:t.coLbyr2uae2z","Event, Organization",Event,Event
1152943762810769409,NYPDnews,Sun Jul 21 14:09:48 +0000 2019,"***Attention New York City***  Sunday has been canceled. Stay indoors, nothing to see here. Really, we got this.   And if you see our officers working out there today in the heat wave, a smile and a Thank You will go a long way (but maybe no hugs.) #SundayMotivation https:t.coKJjpoUdtuN","Event, Organization",Event,Event
1153134478002458626,ewarren,Mon Jul 22 02:47:38 +0000 2019,"I had a terrific time with Mike (our @TeamWarren Grab a Beer* With Elizabeth contest winner) and his wife, Linda, from Elma, New York! We had beer and iced tea at my house, then grabbed dinner down the street. Bruce had a lot of fun and Bailey got to meet his new friend! https:t.coFMMg1xxGkJ",Place,Event,Event
1153061011353677830,Yankees,Sun Jul 21 21:55:42 +0000 2019,"How was a small-town boy, who never wanted to play in New York, convinced to do so? One Mr. Joe Torre. #HOFWKND https:t.co7QIVsqevw4","Place, SportsTeam",Person,Person
1153021826731143169,ChicagoSports,Sun Jul 21 19:20:00 +0000 2019,Anthony Davis calls Chicago the Mecca of basketball. But will he play for the Bulls someday? I'd definitely consider it.  https:t.coZodDUjMZhs https:t.co4hjUTxrk9n,"Person, SportsTeam",Person,Person
1153311494081318913,NBCSBulls,Mon Jul 22 14:31:02 +0000 2019,The Bulls are 3 offseasons into their rebuild. Where does the young core they've put together in that time stack up against some of the others around the league? We broke it down here. https:t.cotVVhWMByul,SportsTeam,SportsTeam,Sports
1153093541251420165,NBCSBulls,Mon Jul 22 00:04:58 +0000 2019,"Turns out former #Bulls forward @BPortistime is an @NBA2K fan and he noticed that his look hadn't been updated....or as Portis states, can I have some hair  https:t.coYtglhf2Vj3",SportsTeam,SportsTeam,Sports
1150622517784170503,ParkerMcCollum,Mon Jul 15 04:26:00 +0000 2019,The Chicago bulls gave me my own jersey on stage today! Windy City Smoke Out was wild! https:t.coQFgwdbAiF9,SportsTeam,SportsTeam,Sports
1152410296058810368,mibr,Sat Jul 20 02:49:59 +0000 2019,SEMIFINALS Na Arena dos Chicago Bulls a gente joga contra a @ENCE para a semifinal da #IEMChicago!  Playing at the Chicago Bulls arena tomorrow for the semifinals of #IEMChicago vs @ENCE!  #SomosMIBR   https:t.conhMtvqzMvK  https:t.co2aeMJDljuw https:t.co2nayJRQpjM,"SportsTeam, Organization",SportsTeam,Sports
1151663614434172929,NBCSBulls,Thu Jul 18 01:22:57 +0000 2019,The #Bulls have reportedly agreed to a fully guaranteed deal with big man Luke Kornet  https:t.coLLOtLOa3dW,"Person, SportsTeam",Person,Person
1150925514284195840,SLAMonline,Tue Jul 16 00:30:00 +0000 2019,"We know Coby White can score the rock, but did y'all know he sings like that?   We spent a day in Chicago with the Bulls' rising star  https:t.coz1bQXJcCjH https:t.coGNGN9YseYK","Person, SportsTeam",Person,Person
1152388101219803136,NBCSBulls,Sat Jul 20 01:21:48 +0000 2019,"Jimmy Boylen, the head coach, is a good friend of mine and he is a hell of a coach.  -@Raptors head coach Nick Nurse on his confidence in the #Bulls future  LINK: https:t.con6CRb58RoE https:t.coVKIWny3d2s","Person, SportsTeam",Person,Person
1152256493166694400,NBCSBulls,Fri Jul 19 16:38:50 +0000 2019,"We ranked 10 NBA rebuilds on potential, star power, production, success and depth. Here's where the Bulls stack up among those other 9 young cores. https:t.cotVVhWMByul",SportsTeam,SportsTeam,Sports
1152340551255154689,NBCSBulls,Fri Jul 19 22:12:51 +0000 2019,#Chicago native @AntDavis23 didn't mince his words when speaking on the importance of basketball in the city   ( : @tonygill670)  LINK: https:t.coRPap4CKBVi https:t.co68eQS35rVL,"Person, SportsTeam",Person,Person
1151139206309134337,NBCSBulls,Tue Jul 16 14:39:08 +0000 2019,"Daniel Gafford didn't make either All-NBA Summer League Team and we are OUTRAGED.  OK, we aren't outraged, but he had a pretty good case to be on there! Just compare the numbers. https:t.coKClUbEPbg6","Person, SportsTeam",Person,Person
1152975403377729536,Stranger_Things,Sun Jul 21 16:15:32 +0000 2019,taking a break from regularly scheduled content to cry about how amazing the women of stranger things are https:t.coFe3rLUrGmQ,TVSeries,TVSeries,TVSeries
1153093886929252352,Stranger_Things,Mon Jul 22 00:06:20 +0000 2019,Would you guys like to set sail on this ocean of flavor with me? #NationalIceCreamDay  https:t.coLso7iaYcpA,Event,Event,Event
1152699955838013440,Stranger_Things,Sat Jul 20 22:01:00 +0000 2019,just for you https:t.coxvFF79o8LM,TVSeries,TVSeries,TVSeries
1153016796867260419,Stranger_Things,Sun Jul 21 19:00:01 +0000 2019,magnets                 mindflayer                      wreaking havoc in hawkins,TVSeries,TVSeries,TVSeries
1153054542487085059,Stranger_Things,Sun Jul 21 21:30:00 +0000 2019,when you realize the wristrocket was the hero that saved our heroes https:t.co34mRTsiO5W,TVSeries,TVSeries,TVSeries
1152666259781312512,Stranger_Things,Sat Jul 20 19:47:06 +0000 2019,share with THAT friend https:t.coBtJPglThLi,TVSeries,TVSeries,TVSeries
1152605531355398144,Stranger_Things,Sat Jul 20 15:45:47 +0000 2019,us when the mindflayer went bye bye https:t.co9ikfFivzBu,TVSeries,TVSeries,TVSeries
1152994240554840070,allkpop,Sun Jul 21 17:30:23 +0000 2019,"[UCC] 'Stranger Things' Tour with EXO Part 1 & Part 2 (Gaten, Kai, Caleb, Suho) https:t.coJjvMFg9s7W https:t.coNxDIKCGJhk",TVSeries,TVSeries,TVSeries
1152798119391875072,IGN,Sun Jul 21 04:31:04 +0000 2019,The Simpsons Treehouse of Horror XXX special (the series' 666th episode overall) will spoof The Omen and Stranger Things. #SDCC2019 https:t.coHKoOmNFs0l https:t.co0aysHSKpIh,TVSeries,TVSeries,TVSeries
1153085537932079105,paulverhoeven,Sun Jul 21 23:33:10 +0000 2019,You: Paul do NOT buy Hoppers shirt from @Stranger_Things youll never wear it Me: https:t.coKJhwoyJVOu,TVSeries,TVSeries,TVSeries
1152771930178641920,ComicBookNOW,Sun Jul 21 02:47:00 +0000 2019,THE SIMPSONS Will Parody All Three Seasons of STRANGER THINGS in Treehouse of Horror XXX https:t.con3YT7wwHCR https:t.co4PKupHE0Dt,TVSeries,TVSeries,TVSeries
1152655877645582336,KhailAnonymous,Sat Jul 20 19:05:51 +0000 2019,Dude soooooooooooo many people at Comic Con are dressed in Scoops Ahoy attire from Stranger Things https:t.cow3Su9SabBm,TVSeries,TVSeries,TVSeries
1152578355390296065,NetflixUK,Sat Jul 20 13:57:48 +0000 2019,"you didn't know you needed this, but turns out... you do. one second from every single stranger things episode...24 seconds of pure joy https:t.cou6yKq6Fkpf",TVSeries,TVSeries,TVSeries
1153068105247203328,Stranger_Things,Sun Jul 21 22:23:53 +0000 2019,@pattonoswalt @DavidKHarbour we demand to see your handshake,TVSeries,TVSeries,TVSeries
1152276923159986181,netflix,Fri Jul 19 18:00:01 +0000 2019,Money Heist  a.k.a. La Casa De Papel  is finally back! Here's a quick recap of everything that happened in Seasons 1 and 2! https:t.coW2XeVRm4sw,TVSeries,TVSeries,TVSeries
1152160070119170048,NetflixUK,Fri Jul 19 10:15:41 +0000 2019, as of today there is ...  Queer Eye Money Heist (aka La Casa De Papel) Last Chance U Comedians in Cars Getting Coffee  ...which is ,TVSeries,TVSeries,TVSeries
1151788160332029952,WaihigaMwaura,Thu Jul 18 09:37:51 +0000 2019,#MoneyHeist trending at numero dos in Kenya at the moment.Seems that La Casa De Papel has quite a following here.  #Netflix,TVSeries,TVSeries,TVSeries
1152163673252728832,AFP,Fri Jul 19 10:30:00 +0000 2019,"VIDEO:  The third season of La Casa de Papel (or Money Heist), the most watched non-English language series on #Netflix, is released worldwide on Friday. The series premiered in Madrid on July 11. #LaCasaDelPapel3 https:t.coMaHXwIdt9n",TVSeries,TVSeries,TVSeries
